<?xml version="1.0" encoding="utf-8"?>
<!-- Generator: Adobe Illustrator 15.1.0, SVG Export Plug-In . SVG Version: 6.00 Build 0)  -->
<!DOCTYPE svg PUBLIC "-//W3C//DTD SVG 1.1//EN" "http://www.w3.org/Graphics/SVG/1.1/DTD/svg11.dtd">
<svg version="1.1" id="Layer_1" xmlns="http://www.w3.org/2000/svg" xmlns:xlink="http://www.w3.org/1999/xlink" x="0px" y="0px"
	 width="30px" height="30px" viewBox="0 0 30 30" enable-background="new 0 0 30 30" xml:space="preserve">
<g>
	<g id="create_1_">
		<g>
			<path fill="#8CC63F" d="M7,19.6v3.7h3.6L21,12.5l-3.6-3.7L7,19.6z M23.7,9.7c0.4-0.4,0.4-1,0-1.4l-2.2-2.2
				c-0.4-0.4-0.9-0.4-1.3,0l-1.7,1.7l3.6,3.7L23.7,9.7z"/>
		</g>
	</g>
</g>
<g>
	<path fill="#8CC63F" d="M30,30H0V0h30V30z M1,29h28V1H1V29z"/>
</g>
</svg>
