<?xml version="1.0" encoding="utf-8"?>
<!-- Generator: Adobe Illustrator 15.1.0, SVG Export Plug-In . SVG Version: 6.00 Build 0)  -->
<!DOCTYPE svg PUBLIC "-//W3C//DTD SVG 1.1//EN" "http://www.w3.org/Graphics/SVG/1.1/DTD/svg11.dtd">
<svg version="1.1" id="Layer_1" xmlns="http://www.w3.org/2000/svg" xmlns:xlink="http://www.w3.org/1999/xlink" x="0px" y="0px"
	 width="55px" height="55px" viewBox="0 0 55 55" enable-background="new 0 0 55 55" xml:space="preserve">
<g>
	<g>
		<defs>
			<circle id="SVGID_1_" cx="27.5" cy="27.5" r="27.5"/>
		</defs>
		<use xlink:href="#SVGID_1_"  overflow="visible" fill="#C0272D"/>
		<clipPath id="SVGID_2_">
			<use xlink:href="#SVGID_1_"  overflow="visible"/>
		</clipPath>
		<g clip-path="url(#SVGID_2_)">
			<path fill="#FFFFFF" d="M-5,44.4c1-2.1,1.8-4.2,2.8-6.3c1-2.3,2-4.5,3-6.8c0.4-1,1.1-1.5,2.2-1.4c2.1,0,4.2,0,6.4,0
				c0.5,0,0.7,0.2,0.8,0.7c0.2,0.9,0.6,1.7,1,2.5c0.1,0.3,0.3,0.6-0.2,0.7C10,34.1,9.4,34.9,8.9,36C6.8,40.6,5,45.2,2.8,49.8
				C1.6,52.4,2,55.1,6,55.4c0,0.8,0,1.6,0,2.4c0,1.2-0.3,2.5-0.3,3.7c0,1.5-1,2.5-2.3,2.5c-1.3,0-2.3-1-2.3-2.5
				c0-4.2-0.1-8.4-0.1-12.6c0-3.1,0-6.2,0-9.5c0,0.3-0.2,0.4-0.2,0.5c-0.8,1.8-1.6,3.5-2.4,5.3c-0.4,0.8-0.7,1.4-1.6,1.4
				c-1,0-1.7-0.6-1.7-1.4C-5,45-5,44.7-5,44.4z"/>
			<path fill="#FFFFFF" d="M41,46.2c0,0.2,0,0.5,0,0.7c0,7.9,0,15.8,0,23.8c0,1.6-0.9,2.6-2.3,2.7c-1.3,0.1-2.4-0.9-2.5-2.3
				c0-1.4,0-2.8,0-4.2c0-3.2,0-6.1,0-9.3c0-0.2,0-0.3,0-0.3c-0.6,0-1.1,0-2.1,0c0,0,0-0.2,0,0c0,4.5,0.2,8.9,0.2,13.4
				c0,1.5-0.9,2.6-2.3,2.6c-1.4,0-2.3-1-2.4-2.5c0-3,0-6.1,0-9.1c0-5.2,0-10.3-0.1-15.5c-0.1,0.2-0.2,0.3-0.3,0.5
				c-0.9,2.1-1.9,4.1-2.8,6.2c-0.5,1.1-1.5,1.5-2.5,1.1c-1-0.4-1.6-1.5-1.2-2.5c0.2-0.6,0.5-1.2,0.8-1.8c1.9-4.2,3.9-8.4,5.8-12.7
				c0.5-1,1.1-1.6,2.3-1.6c2.6,0,5.1,0,7.7,0c1.1,0,1.8,0.6,2.2,1.6c2.1,4.6,4.2,9.2,6.3,13.8c0.2,0.5,0.4,1,0.4,1.5
				c0,0.9-0.8,1.6-1.6,1.8c-0.9,0.2-1.7-0.3-2.2-1.1c-0.7-1.4-1.3-2.8-2-4.3C41.8,47.9,41.5,47.1,41,46.2C41.1,46.2,41,46.2,41,46.2
				z"/>
			<path fill="#FFFFFF" d="M10.8,45.8c-0.2,0.3-0.4,0.6-0.5,1c-0.9,1.9-1.8,3.8-2.6,5.7c-0.4,0.9-1.2,1.4-2.1,1.3
				c-1.4-0.2-2.2-1.6-1.5-3c1-2.1,1.9-4.3,2.9-6.4c1.2-2.6,2.4-5.1,3.5-7.7c0.5-1.1,1.2-1.6,2.4-1.6c2.5,0,4.9,0,7.3,0
				c1.2,0,1.9,0.5,2.4,1.6c0.7,1.7,1.6,3.4,2.3,5.2c0.1,0.2,0.2,0.5,0.1,0.7c-0.7,1.5-1.4,3-2.1,4.6c-0.2-0.5-0.4-0.9-0.6-1.3
				c0,0-0.1,0-0.1,0c0,0.5,0,1,0,1.4c0.1,1-0.1,1.9-0.6,2.8c-0.4,0.8-0.8,1.6-0.6,2.5c0.2,0.7,0.5,1.3,0.8,2
				c0.1,0.3,0.3,0.6,0.3,0.8c0,5,0,9.9,0,14.9c0,1.1-0.4,1.9-1.4,2.4c-0.9,0.4-1.8,0.3-2.5-0.3c-0.7-0.5-0.9-1.3-0.9-2.1
				c0-2.6,0-5.1,0-7.7c0-1.9,0-3.2,0-5.2c0-0.2,0-0.1,0-0.1c-0.6,0-1.2,0-2.2,0c0,0,0-0.7,0-0.4c0,4.5,0.3,8.9,0.3,13.4
				c0,1.3-0.5,2.2-1.7,2.5c-1.4,0.4-2.6-0.6-2.7-2.1c0-0.7,0.1-1.3,0.1-2c0-7.5,0-15,0-22.5c0-0.1,0-0.3,0-0.4
				C11,45.9,10.8,45.8,10.8,45.8z"/>
			<path fill="#FFFFFF" d="M54,38.9c0,0.5,0,1.1,0,1.6c0,7.4,0,14.8,0,22.3c0,0.5-0.1,1-0.2,1.4c-0.3,1.2-1.5,1.9-2.7,1.8
				C50,65.8,49,64.8,49,63.6c0-2.6,0-5.1,0-7.7c0-0.8,0-1.6,0.4-2.4c0.5-0.9,0.3-1.9-0.1-2.9c-2.2-4.8-4.4-9.7-6.6-14.5
				c-0.5-1.1-1.4-1.8-2.4-2.1c0.6-1.5,1.2-2.9,1.8-4.4c0.4-1,1.2-1.5,2.2-1.5c2.6,0,5.1,0,7.7,0c1,0,1.7,0.5,2.2,1.4
				c2.1,4.7,4.3,9.4,6.4,14.1c0.7,1.6-0.2,3.2-1.8,3.1c-0.9-0.1-1.4-0.6-1.7-1.3c-0.9-2.1-1.9-4.1-2.8-6.2
				C54,39.2,54.1,39.1,54,38.9C54,38.9,54,38.9,54,38.9z"/>
			<path fill="#FFFFFF" d="M21.1,29.5c0,2.6-2.1,4.7-4.7,4.7c-2.6,0-4.7-2.1-4.7-4.7c0-2.6,2.2-4.7,4.7-4.7
				C19,24.8,21.1,26.9,21.1,29.5z"/>
			<path fill="#FFFFFF" d="M48,27.2c-2.6,0-4.6-2.1-4.6-4.7c0-2.6,2.1-4.7,4.7-4.7c2.6,0,4.7,2.2,4.7,4.7
				C52.7,25.2,50.6,27.2,48,27.2z"/>
			<path fill="#FFFFFF" d="M30.6,29.9c0-2.6,2-4.7,4.6-4.7c2.6,0,4.7,2.1,4.7,4.7c0,2.6-2.1,4.7-4.7,4.7
				C32.7,34.6,30.6,32.5,30.6,29.9z"/>
			<path fill="#FFFFFF" d="M33.9,22.1c0,0.3,0,0.6-0.1,0.9c-0.1,0.6-0.4,0.9-0.9,1.2c-0.9,0.4-1.8,1-2.4,1.8
				c-0.7,0.9-1.4,0.9-2.3,0.8c-2.3-0.5-3.9-2.7-3.6-5.1c0.2-2.2,2.2-4,4.5-4.1c2.2-0.1,4.4,1.6,4.8,3.8
				C33.9,21.5,33.9,21.8,33.9,22.1z"/>
			<path fill="#FFFFFF" d="M26,40.3c-0.7-1.5-1.3-2.8-1.9-4.1c-0.6-1.3-1.4-2.2-2.8-2.6c0.2-0.4,0.5-0.7,0.6-1
				c0.4-1.1,0.9-2.1,1.3-3.2c0.4-1.1,1.2-1.6,2.4-1.6c1.2,0,2.5,0,3.8,0C28.6,30,29,32.1,30.5,34c-1.8,0.3-2.5,1.6-3.1,3.1
				C27,38.1,26.5,39.2,26,40.3z"/>
			<path fill="#FFFFFF" d="M2.1,24.7c0-2.3,1.9-4.2,4.2-4.2c2.3,0,4.2,1.9,4.2,4.2c0,2.4-1.9,4.3-4.2,4.3C4,28.9,2.1,27,2.1,24.7z"
				/>
			<path fill="#FFFFFF" d="M24.4,26.1c-0.7,0.4-1.3,0.8-2,1.2c-0.8-1.9-2.2-3.3-4.2-3.9c-2.1-0.6-4-0.1-5.8,1.3
				c0.1-0.3,0.1-0.4,0.2-0.6c0.7-1.4,1.3-2.9,2-4.3c0.4-0.8,1-1.3,1.9-1.3c2.2,0,4.3,0,6.5,0c0.3,0,0.6,0.2,1,0.3
				C22.4,21.4,22.7,23.8,24.4,26.1z"/>
			<path fill="#FFFFFF" d="M39.1,13.1c2.7,0,4.7,2.2,4.4,4.8c0,0.2-0.1,0.4-0.2,0.5c-0.4,0.6-0.7,1.3-1.1,1.9
				c-0.5,0.8-1.4,1.1-2.2,1.2c-2.3,0.3-4.4-1.1-4.8-3.3c-0.4-2.2,0.9-4.4,3.2-5C38.7,13.1,39,13.1,39.1,13.1z"/>
			<path fill="#FFFFFF" d="M19.7,9.5c2.3,0,4.1,1.8,4.1,4.1c0,2.2-1.8,4.1-4,4.1c-2.3,0-4.1-1.8-4.1-4C15.6,11.4,17.4,9.5,19.7,9.5z
				"/>
			<path fill="#FFFFFF" d="M42.6,53.7c1.1,1.8,2.6,2.4,4.5,2c0,0.1,0.1,0.2,0.1,0.2c0,2.6,0,5.2,0,7.7c0,1.8-1.9,2.8-3.5,2
				c-0.7-0.4-1.1-0.9-1.1-1.7c0-3.2,0-6.3,0-9.5C42.6,54.2,42.6,54,42.6,53.7z"/>
			<path fill="#FFFFFF" d="M24,55.9c2-0.2,3-0.5,4-0.7c0,0.4,0,0.6,0,0.8c0,2.5-0.1,5.1-0.1,7.6c0,1.1-1,2-2.1,1.9
				c-1.3-0.1-2-0.9-2-2.2c0-2.3,0.1-4.5,0.1-6.8C24,56.3,24,56.1,24,55.9z"/>
			<path fill="#FFFFFF" d="M35.4,24c0-1.1,0.1-0.7,1.1-0.7c1.7,0,3.4,0,5.2,0c0.1,1,0.5,2.5,1.5,3.7c-0.7,0.4-1.4,0.8-2.1,1.2
				C40.1,25.7,38.2,24.3,35.4,24z"/>
			<path fill="#FFFFFF" d="M9,63.9c-1-0.1-1.9-0.8-1.9-1.9c-0.1-2.2,0-4.5,0-6.7c0-0.1,0.1-0.3,0.2-0.4c0.6-0.5,1.8-1,1.8-1.5
				C9,56.9,9,60.4,9,63.9z"/>
		</g>
	</g>
	<g>
		<g>
			<path fill="#C0272D" d="M37.2,40.9c-0.3-1-0.6-1.9-0.6-1.9s0.1,0.4-0.5,1.4c-0.8,1.3-0.8,1.2-5.4,7.7l1.2,1.7
				c0,0,3.9-5.7,5.1-7.6C37.2,42,37.4,41.7,37.2,40.9z"/>
			<path fill="#C0272D" d="M36.1,38.6c-0.6-0.3-1.6-0.4-2.4,0c0,0-0.5,0.3,0.1,1.3c0,0,0.5-0.2,1.1-0.2c0.6,0,1.1,0.2,1.1,0.2
				C36.6,38.9,36.1,38.6,36.1,38.6z"/>
			<path fill="#C0272D" d="M36.3,44c-0.3,0.5-0.7,1-1.1,1.6c1.4,2.1,2.8,4.2,2.8,4.2l1.2-1.6C37.9,46.3,37,45,36.3,44z"/>
			<path fill="#C0272D" d="M33.6,43.3c0.5-0.7,0.8-1.2,1.1-1.5c-0.4-0.5-0.5-0.8-0.9-1.4c-0.6-1-0.5-1.4-0.5-1.4s-0.3,0.9-0.6,1.9
				c-0.2,0.8,0,1.1,0.2,1.4C33.1,42.5,33.4,42.9,33.6,43.3z"/>
		</g>
	</g>
	<g>
		<g>
			<path fill="#C0272D" d="M18.8,39.7c-0.3-1-0.6-1.9-0.6-1.9s0.1,0.4-0.5,1.4c-0.8,1.3-0.8,1.2-5.4,7.7l1.2,1.7
				c0,0,3.9-5.7,5.1-7.6C18.8,40.8,19,40.5,18.8,39.7z"/>
			<path fill="#C0272D" d="M17.7,37.4c-0.6-0.3-1.6-0.4-2.4,0c0,0-0.5,0.3,0.1,1.3c0,0,0.5-0.2,1.1-0.2c0.6,0,1.1,0.2,1.1,0.2
				C18.2,37.7,17.7,37.4,17.7,37.4z"/>
			<path fill="#C0272D" d="M17.9,42.9c-0.3,0.5-0.7,1-1.1,1.6c1.4,2.1,2.8,4.2,2.8,4.2l1.2-1.6C19.5,45.2,18.6,43.8,17.9,42.9z"/>
			<path fill="#C0272D" d="M15.2,42.1c0.5-0.7,0.8-1.2,1.1-1.5c-0.4-0.5-0.5-0.8-0.9-1.4c-0.6-1-0.5-1.4-0.5-1.4s-0.3,0.9-0.6,1.9
				c-0.2,0.8,0,1.1,0.2,1.4C14.7,41.4,14.9,41.7,15.2,42.1z"/>
		</g>
	</g>
</g>
</svg>
