<?xml version="1.0" encoding="utf-8"?>
<!-- Generator: Adobe Illustrator 15.1.0, SVG Export Plug-In . SVG Version: 6.00 Build 0)  -->
<!DOCTYPE svg PUBLIC "-//W3C//DTD SVG 1.1//EN" "http://www.w3.org/Graphics/SVG/1.1/DTD/svg11.dtd">
<svg version="1.1" id="Layer_1" xmlns="http://www.w3.org/2000/svg" xmlns:xlink="http://www.w3.org/1999/xlink" x="0px" y="0px"
	 width="55px" height="55px" viewBox="0 0 55 55" enable-background="new 0 0 55 55" xml:space="preserve">
<g>
	<g>
		<circle fill="#00A99D" cx="27.5" cy="27.5" r="27.5"/>
	</g>
</g>
<g>
	<g>
		<g>
			<path fill="#FFFFFF" d="M40.5,45.5H13.9c-1.4,0-2.5-1.3-2.5-2.6v-31c0-1.4,1.2-2.3,2.5-2.3h26.6c1.4,0,2.4,0.9,2.4,2.3V24
				c0,0.3-0.2,0.5-0.5,0.5s-0.5-0.2-0.5-0.5V11.8c0-0.8-0.6-1.3-1.4-1.3H13.9c-0.8,0-1.6,0.5-1.6,1.3v31c0,0.8,0.7,1.6,1.6,1.6h26.6
				c0.8,0,1.4-0.8,1.4-1.6V21.1c0-0.3,0.2-0.5,0.5-0.5s0.5,0.2,0.5,0.5v21.7C42.8,44.2,41.8,45.5,40.5,45.5z"/>
		</g>
		<g>
			<g>
				<path fill="#FFFFFF" d="M25.6,38.5c0,0.3,0.1,0.5,0.3,0.7c0.3,0.1,0.5,0,0.7-0.2c0.7-0.6,1.2-1.5,1.7-2.3
					c0.3-0.4,0.5-0.8,0.9-1.1c0.1,0.3,0.2,0.5,0.3,0.8c0.1,0.6,0.1,1.2,0.2,1.8c0,0.8,0.6,1.2,1.3,0.8c0.4-0.2,0.7-0.5,1-0.8
					c0.3-0.2,0.5-0.5,0.8-0.7c0.5-0.3,1.1-0.3,1.7,0c0.1,0.1,0.3-0.1,0.5-0.1c-0.1-0.1-0.1-0.3-0.2-0.4c0-0.1-0.2-0.1-0.2-0.1
					c-0.9-0.4-1.9-0.1-2.6,0.6c-0.3,0.3-0.6,0.6-1,0.9c-0.2,0.1-0.4,0.2-0.6,0.2c0-0.2-0.1-0.4-0.1-0.6c-0.1-0.6-0.1-1.3-0.3-1.9
					c-0.1-0.4-0.3-0.8-0.8-0.9c-0.5-0.1-0.8,0.3-1,0.6c-0.1,0.1-0.1,0.2-0.2,0.2c-0.4,0.6-0.8,1.3-1.2,1.9c-0.2,0.3-0.4,0.5-0.6,0.8
					c0,0-0.1,0-0.1-0.1c0.1-0.6,0.2-1.2,0.2-1.8c0-0.4,0-0.7,0-1.1c0.1-0.4-0.1-0.8-0.4-0.9c-0.3-0.1-0.6,0-0.9,0.4
					c-0.2,0.3-0.4,0.6-0.6,0.9c-0.4,0.7-0.8,1.3-1.2,2c-0.2,0.3-0.5,0.4-0.8,0.2c-0.4-0.2-0.5-0.5-0.4-0.9c0.5-1.9,1.1-3.8,1.5-5.6
					c0.2-0.8,0.2-1.6,0.2-2.4c0-0.3-0.1-0.7-0.4-0.9c-0.4-0.2-0.7,0-1.1,0.2c-0.2,0.2-0.4,0.3-0.6,0.5c-0.7,0.9-1.4,1.7-2.1,2.7
					c-0.8,1.2-1.6,2.4-2,3.9c-0.3,1-0.1,1.8,0.6,2.3c0.6,0.4,1.2,0.4,1.8,0.3c0.2,0,0.4-0.1,0.4-0.4c0-0.2-0.2-0.3-0.5-0.2
					c-0.3,0-0.5,0-0.8,0c-0.8-0.1-1.1-0.6-1-1.3c0.1-0.5,0.2-0.9,0.4-1.3c0.9-2,2.2-3.8,3.7-5.4c0.2-0.2,0.5-0.4,0.7-0.6
					c0,0,0.1,0,0.1,0.1c0,0.5,0.1,0.9,0,1.4c-0.3,2.3-1,4.5-1.7,6.8c-0.2,0.5-0.1,1,0.3,1.4c0.5,0.5,1.1,0.7,1.5,0.3
					c0.5-0.4,0.9-0.9,1.3-1.5c0.4-0.6,0.7-1.2,1.1-1.9c0.1,0.3,0.1,0.9,0.1,1C25.7,37,25.7,37.8,25.6,38.5z"/>
			</g>
			<path fill="#FFFFFF" d="M39.7,23.9c0,0.6-0.5,1.1-1.1,1.1H16c-0.6,0-1.1-0.5-1.1-1.1v-0.4c0-0.6,0.5-1.1,1.1-1.1h22.6
				c0.6,0,1.1,0.5,1.1,1.1V23.9z"/>
			<path fill="#FFFFFF" d="M39.7,17.6c0,0.6-0.5,1.1-1.1,1.1H16c-0.6,0-1.1-0.5-1.1-1.1v-0.4c0-0.6,0.5-1.1,1.1-1.1h22.6
				c0.6,0,1.1,0.5,1.1,1.1V17.6z"/>
		</g>
	</g>
</g>
</svg>
