<?xml version="1.0" encoding="utf-8"?>
<!-- Generator: Adobe Illustrator 15.1.0, SVG Export Plug-In . SVG Version: 6.00 Build 0)  -->
<!DOCTYPE svg PUBLIC "-//W3C//DTD SVG 1.1//EN" "http://www.w3.org/Graphics/SVG/1.1/DTD/svg11.dtd">
<svg version="1.1" id="Layer_1" xmlns="http://www.w3.org/2000/svg" xmlns:xlink="http://www.w3.org/1999/xlink" x="0px" y="0px"
	 width="55px" height="55px" viewBox="0 0 55 55" enable-background="new 0 0 55 55" xml:space="preserve">
<g>
	<g>
		<circle fill="#C0272D" cx="27.5" cy="27.5" r="27.5"/>
	</g>
</g>
<g>
	<path fill="#FFFFFF" d="M12.7,15.3c-2.5,0-4.4,2-4.4,4.4c0,2.5,2,4.4,4.4,4.4c2.5,0,4.4-2,4.4-4.4C17.1,17.3,15.1,15.3,12.7,15.3
		L12.7,15.3z"/>
</g>
<path fill="#FFFFFF" d="M19.6,38.8c0.2,0.5,0.6,1,1.1,1.2c0.2,0.1,0.4,0.1,0.7,0.1c0.3,0,0.7-0.1,0.9-0.3l8.5-4.9
	c0.9-0.5,1.2-1.7,0.7-2.6c-0.5-0.9-1.7-1.2-2.6-0.7l-6.5,3.8l-2.7-8.1c-0.2-0.7-0.9-1.2-1.6-1.3l0,0h-10l0,0c-0.9,0-1.7,0.6-1.9,1.5
	L2.7,39.9c0.8,1.6,1.8,3.1,2.9,4.6l1-3.5v4.7c0.4,0.5,0.8,0.9,1.3,1.4c3.2,3.2,7,5.4,11,6.7c0-8.2,0-12.3,0-17.5L19.6,38.8z"/>
<path fill="#FFFFFF" d="M45.4,11.2H15.6c-0.8,0-1.4,0.6-1.4,1.4v0.8c2.9,0.7,5,3.3,5,6.3c0,1.6-0.6,3.1-1.6,4.2l0.7,0
	c1.6,0.2,2.9,1.2,3.4,2.7l1.9,5.7l4.3-2.5c0.6-0.3,1.3-0.5,2-0.5c1.4,0,2.7,0.8,3.4,2c0.4,0.7,0.6,1.6,0.5,2.4h11.6
	c0.8,0,1.4-0.6,1.4-1.4V12.6C46.8,11.8,46.2,11.2,45.4,11.2z"/>
<g>
	<g>
		<path fill="#C0272D" d="M34.7,17.3c-0.4-1.3-0.8-2.5-0.8-2.5s0.1,0.6-0.7,1.9c-1.1,1.8-1,1.6-7.3,10.4l1.6,2.2
			c0,0,5.2-7.6,6.9-10.2C34.7,18.8,35,18.4,34.7,17.3z"/>
		<path fill="#C0272D" d="M33.3,14.2c-0.8-0.4-2.2-0.6-3.2,0c0,0-0.6,0.4,0.2,1.7c0,0,0.7-0.2,1.4-0.2c0.8,0,1.4,0.2,1.4,0.2
			C33.9,14.6,33.3,14.2,33.3,14.2z"/>
		<path fill="#C0272D" d="M33.5,21.6c-0.5,0.7-1,1.4-1.5,2.2c1.9,2.8,3.8,5.7,3.8,5.7l1.6-2.2C35.7,24.7,34.4,22.9,33.5,21.6z"/>
		<path fill="#C0272D" d="M29.9,20.6c0.7-0.9,1.1-1.6,1.5-2.1c-0.5-0.7-0.7-1.1-1.2-1.8c-0.8-1.3-0.6-1.9-0.6-1.9s-0.4,1.2-0.8,2.5
			c-0.3,1,0,1.5,0.2,1.9C29.2,19.5,29.5,20,29.9,20.6z"/>
	</g>
</g>
</svg>
