<?xml version="1.0" encoding="utf-8"?>
<!-- Generator: Adobe Illustrator 15.1.0, SVG Export Plug-In . SVG Version: 6.00 Build 0)  -->
<!DOCTYPE svg PUBLIC "-//W3C//DTD SVG 1.1//EN" "http://www.w3.org/Graphics/SVG/1.1/DTD/svg11.dtd">
<svg version="1.1" id="Layer_1" xmlns="http://www.w3.org/2000/svg" xmlns:xlink="http://www.w3.org/1999/xlink" x="0px" y="0px"
	 width="55px" height="55px" viewBox="0 0 55 55" enable-background="new 0 0 55 55" xml:space="preserve">
<g>
	<g>
		<circle fill="#9F53A1" cx="27.5" cy="27.5" r="27.5"/>
	</g>
</g>
<g>
	<defs>
		<circle id="SVGID_1_" cx="27.5" cy="27.5" r="27.5"/>
	</defs>
	<clipPath id="SVGID_2_">
		<use xlink:href="#SVGID_1_"  overflow="visible"/>
	</clipPath>
	<g clip-path="url(#SVGID_2_)">
		<path fill-rule="evenodd" clip-rule="evenodd" fill="#FFFFFF" d="M-3.7,27.4c0-7.6,0-15.2,0-22.8c6.8,5.1,13.4,10.2,20,15.2
			c-1.4,4.6-2.9,9-4.4,13.5C6.5,31.3,1.2,29.3-3.7,27.4z"/>
		<path fill-rule="evenodd" clip-rule="evenodd" fill="#FFFFFF" d="M18.3,34.3c-0.8,1-1.6,2-2.4,3C14,36.1,16.8,32.4,18.3,34.3z"/>
		<path fill-rule="evenodd" clip-rule="evenodd" fill="#FFFFFF" d="M21.6,35.6c-0.7,1.8-2.1,2.9-3.2,4.4c-0.2,0-0.5,0-0.6-0.1
			c-2.7-1.2,1.3-4,2-5.3c0.2-0.1,0.3-0.1,0.3-0.1C20.9,34.4,21.3,34.9,21.6,35.6z"/>
		<path fill-rule="evenodd" clip-rule="evenodd" fill="#FFFFFF" d="M21,42.4c-0.9-0.2-1.6-0.5-1.5-1.7c1-1.1,1.9-2.2,2.7-3.4
			c1.1-0.3,1.8,0.2,1.8,1.2C23.2,40,22.1,41.2,21,42.4z"/>
		<path fill-rule="evenodd" clip-rule="evenodd" fill="#FFFFFF" d="M22.1,43.5c0-0.2,0-0.3,0.1-0.4c1.1-0.9,1.7-3.6,3.8-2.5
			c0.2,0.2,0.4,0.4,0.3,0.8c-0.8,0.9-1,2.7-2.6,2.9C23.5,44.4,22.4,43.8,22.1,43.5z"/>
		<path fill-rule="evenodd" clip-rule="evenodd" fill="#FFFFFF" d="M31.7,27.8c3.6,2.1,7,4.2,9.8,7c0.3,0.4,0.3,0.9,0.3,1.4
			C41.7,37.1,41,38.5,40,38c-1.1-0.6-6.7-5.3-8.1-6.3c-0.2,0-0.3,0-0.5,0c-0.2,0.2-0.3,0.3-0.4,0.5c0,0.3,0.1,0.4,0.1,0.6
			c2.6,2,5.7,4.3,8.4,6.5c-0.1,1.2-0.7,1.8-1.8,2c-1.7-1.4-7.7-6.4-8.5-5.5c0,0.2,0,0.3,0,0.5c2.3,2.2,5.2,3.8,7.5,6
			c0,0.2-0.1,0.6-0.6,1.1c-2,1.4-7.8-3.7-7.8-3.7s-0.4,0.3-0.4,0.6c1,1.3,2.9,2.3,4.3,3.5c-1.1,2.4-3.7,0.3-4.8-0.8
			c1.1-1.8-0.1-4-1.8-4.2c0-2-0.8-2.7-2.4-3.1c-0.1-1.9-1.7-3-3.6-2.5c-0.7-1-2.8-1.5-3.8-0.4c-0.6-0.5-1.1-0.8-1.6-1.6
			c0.9-3.6,2.1-6.7,3.2-10c2.6,0.5,5.9,0.4,8.5,0.8c-1.5,1.2-3.8,1.5-4.9,3c-0.2,4.7,6.8,4.1,9.3,2.1c0.2,0,0.4,0,0.6,0.1
			C31.1,27.4,31.3,27.6,31.7,27.8z"/>
		<path fill-rule="evenodd" clip-rule="evenodd" fill="#FFFFFF" d="M60.3,8.9c0.3,5.5,0,11.5,0.1,17.2c-3.1,2.1-6.1,4.4-9.3,6.3
			c-2.8-4-5.7-8.1-8.6-12.2C48.1,16.2,54.4,12.8,60.3,8.9z"/>
		<path fill-rule="evenodd" clip-rule="evenodd" fill="#FFFFFF" d="M48.1,30.3c-1.5,1.5-3.5,2.6-6,3c-3.1-3.5-7.6-5.5-11.5-8
			c-2.2,1-6.7,3.2-8.2,0.1c2.5-1.1,4.6-2.6,7-3.5c0.5,0,1,0,1.4,0.1c0.4,0.1,3.1,0.7,4.1,1c0.9,0.2,1.9,0.4,2.8,0.3
			c1.1-0.7,2.5-1.2,3.8-1.7l0.2,0C41.7,21.6,45.9,27.5,48.1,30.3z"/>
	</g>
</g>
</svg>
