<?xml version="1.0" encoding="utf-8"?>
<!-- Generator: Adobe Illustrator 15.1.0, SVG Export Plug-In . SVG Version: 6.00 Build 0)  -->
<!DOCTYPE svg PUBLIC "-//W3C//DTD SVG 1.1//EN" "http://www.w3.org/Graphics/SVG/1.1/DTD/svg11.dtd">
<svg version="1.1" id="Layer_1" xmlns="http://www.w3.org/2000/svg" xmlns:xlink="http://www.w3.org/1999/xlink" x="0px" y="0px"
	 width="279px" height="79.4px" viewBox="0 0 279 79.4" enable-background="new 0 0 279 79.4" xml:space="preserve">
<g>
	<path fill="#F28246" d="M83.4,2.7h-1.8V0.9c0-0.8-0.6-1.4-1.4-1.4s-1.4,0.6-1.4,1.4v1.8h-9.2V0.9c0-0.8-0.6-1.4-1.4-1.4
		c-0.8,0-1.4,0.6-1.4,1.4v1.8h-9.2V0.9c0-0.8-0.6-1.4-1.4-1.4s-1.4,0.6-1.4,1.4v1.8h-2.8c-2.5,0-4.6,2.1-4.6,4.6v23
		c0,2.5,2.1,4.6,4.6,4.6h31.3c2.5,0,4.6-2.1,4.6-4.6v-23C88,4.8,85.9,2.7,83.4,2.7z"/>
	<rect x="53.9" y="11" fill="#FFFFFF" width="7.4" height="7.4"/>
	<rect x="64.1" y="11" fill="#FFFFFF" width="7.4" height="7.4"/>
	<rect x="74.2" y="11" fill="#FFFFFF" width="7.4" height="7.4"/>
	<rect x="53.9" y="21.1" fill="#FFFFFF" width="7.4" height="7.4"/>
	<rect x="64.1" y="21.1" fill="#FFFFFF" width="7.4" height="7.4"/>
	<rect x="74.2" y="21.1" fill="#FFFFFF" width="7.4" height="7.4"/>
</g>
<g>
	<path fill="#F28246" d="M83.4,46.7h-1.8v-1.8c0-0.8-0.6-1.4-1.4-1.4s-1.4,0.6-1.4,1.4v1.8h-9.2v-1.8c0-0.8-0.6-1.4-1.4-1.4
		c-0.8,0-1.4,0.6-1.4,1.4v1.8h-9.2v-1.8c0-0.8-0.6-1.4-1.4-1.4s-1.4,0.6-1.4,1.4v1.8h-2.8c-2.5,0-4.6,2.1-4.6,4.6v23
		c0,2.5,2.1,4.6,4.6,4.6h31.3c2.5,0,4.6-2.1,4.6-4.6v-23C88,48.7,85.9,46.7,83.4,46.7z"/>
	<rect x="53.9" y="54.9" fill="#FFFFFF" width="7.4" height="7.4"/>
	<rect x="64.1" y="54.9" fill="#FFFFFF" width="7.4" height="7.4"/>
	<rect x="74.2" y="54.9" fill="#FFFFFF" width="7.4" height="7.4"/>
	<rect x="53.9" y="65.1" fill="#FFFFFF" width="7.4" height="7.4"/>
	<rect x="64.1" y="65.1" fill="#FFFFFF" width="7.4" height="7.4"/>
	<rect x="74.2" y="65.1" fill="#FFFFFF" width="7.4" height="7.4"/>
</g>
<g>
	<path fill="#F28246" d="M35.9,2.7h-1.8V0.9c0-0.8-0.6-1.4-1.4-1.4s-1.4,0.6-1.4,1.4v1.8h-9.2V0.9c0-0.8-0.6-1.4-1.4-1.4
		c-0.8,0-1.4,0.6-1.4,1.4v1.8h-9.2V0.9c0-0.8-0.6-1.4-1.4-1.4S7.4,0.1,7.4,0.9v1.8H4.6C2.1,2.7,0,4.8,0,7.3v23C0,32.9,2.1,35,4.6,35
		h31.3c2.5,0,4.6-2.1,4.6-4.6v-23C40.5,4.8,38.4,2.7,35.9,2.7z"/>
	<rect x="6.4" y="11" fill="#FFFFFF" width="7.4" height="7.4"/>
	<rect x="16.6" y="11" fill="#FFFFFF" width="7.4" height="7.4"/>
	<rect x="26.7" y="11" fill="#FFFFFF" width="7.4" height="7.4"/>
	<rect x="6.4" y="21.1" fill="#FFFFFF" width="7.4" height="7.4"/>
	<rect x="16.6" y="21.1" fill="#FFFFFF" width="7.4" height="7.4"/>
	<rect x="26.7" y="21.1" fill="#FFFFFF" width="7.4" height="7.4"/>
</g>
<g>
	<path fill="#F28246" d="M35.9,46.7h-1.8v-1.8c0-0.8-0.6-1.4-1.4-1.4s-1.4,0.6-1.4,1.4v1.8h-9.2v-1.8c0-0.8-0.6-1.4-1.4-1.4
		c-0.8,0-1.4,0.6-1.4,1.4v1.8h-9.2v-1.8c0-0.8-0.6-1.4-1.4-1.4s-1.4,0.6-1.4,1.4v1.8H4.6c-2.5,0-4.6,2.1-4.6,4.6v23
		c0,2.5,2.1,4.6,4.6,4.6h31.3c2.5,0,4.6-2.1,4.6-4.6v-23C40.5,48.7,38.4,46.7,35.9,46.7z"/>
	<rect x="6.4" y="54.9" fill="#FFFFFF" width="7.4" height="7.4"/>
	<rect x="16.6" y="54.9" fill="#FFFFFF" width="7.4" height="7.4"/>
	<rect x="26.7" y="54.9" fill="#FFFFFF" width="7.4" height="7.4"/>
	<rect x="6.4" y="65.1" fill="#FFFFFF" width="7.4" height="7.4"/>
	<rect x="16.6" y="65.1" fill="#FFFFFF" width="7.4" height="7.4"/>
	<rect x="26.7" y="65.1" fill="#FFFFFF" width="7.4" height="7.4"/>
</g>
<g>
	<path fill="#F28246" d="M178.4,2.7h-1.8V0.9c0-0.8-0.6-1.4-1.4-1.4s-1.4,0.6-1.4,1.4v1.8h-9.2V0.9c0-0.8-0.6-1.4-1.4-1.4
		c-0.8,0-1.4,0.6-1.4,1.4v1.8h-9.2V0.9c0-0.8-0.6-1.4-1.4-1.4s-1.4,0.6-1.4,1.4v1.8h-2.8c-2.5,0-4.6,2.1-4.6,4.6v23
		c0,2.5,2.1,4.6,4.6,4.6h31.3c2.5,0,4.6-2.1,4.6-4.6v-23C183,4.8,180.9,2.7,178.4,2.7z"/>
	<rect x="148.9" y="11" fill="#FFFFFF" width="7.4" height="7.4"/>
	<rect x="159.1" y="11" fill="#FFFFFF" width="7.4" height="7.4"/>
	<rect x="169.2" y="11" fill="#FFFFFF" width="7.4" height="7.4"/>
	<rect x="148.9" y="21.1" fill="#FFFFFF" width="7.4" height="7.4"/>
	<rect x="159.1" y="21.1" fill="#FFFFFF" width="7.4" height="7.4"/>
	<rect x="169.2" y="21.1" fill="#FFFFFF" width="7.4" height="7.4"/>
</g>
<g>
	<path fill="#F28246" d="M178.4,46.7h-1.8v-1.8c0-0.8-0.6-1.4-1.4-1.4s-1.4,0.6-1.4,1.4v1.8h-9.2v-1.8c0-0.8-0.6-1.4-1.4-1.4
		c-0.8,0-1.4,0.6-1.4,1.4v1.8h-9.2v-1.8c0-0.8-0.6-1.4-1.4-1.4s-1.4,0.6-1.4,1.4v1.8h-2.8c-2.5,0-4.6,2.1-4.6,4.6v23
		c0,2.5,2.1,4.6,4.6,4.6h31.3c2.5,0,4.6-2.1,4.6-4.6v-23C183,48.7,180.9,46.7,178.4,46.7z"/>
	<rect x="148.9" y="54.9" fill="#FFFFFF" width="7.4" height="7.4"/>
	<rect x="159.1" y="54.9" fill="#FFFFFF" width="7.4" height="7.4"/>
	<rect x="169.2" y="54.9" fill="#FFFFFF" width="7.4" height="7.4"/>
	<rect x="148.9" y="65.1" fill="#FFFFFF" width="7.4" height="7.4"/>
	<rect x="159.1" y="65.1" fill="#FFFFFF" width="7.4" height="7.4"/>
	<rect x="169.2" y="65.1" fill="#FFFFFF" width="7.4" height="7.4"/>
</g>
<g>
	<path fill="#F28246" d="M130.9,2.7h-1.8V0.9c0-0.8-0.6-1.4-1.4-1.4s-1.4,0.6-1.4,1.4v1.8h-9.2V0.9c0-0.8-0.6-1.4-1.4-1.4
		c-0.8,0-1.4,0.6-1.4,1.4v1.8h-9.2V0.9c0-0.8-0.6-1.4-1.4-1.4s-1.4,0.6-1.4,1.4v1.8h-2.8c-2.5,0-4.6,2.1-4.6,4.6v23
		c0,2.5,2.1,4.6,4.6,4.6h31.3c2.5,0,4.6-2.1,4.6-4.6v-23C135.5,4.8,133.4,2.7,130.9,2.7z"/>
	<rect x="101.4" y="11" fill="#FFFFFF" width="7.4" height="7.4"/>
	<rect x="111.6" y="11" fill="#FFFFFF" width="7.4" height="7.4"/>
	<rect x="121.7" y="11" fill="#FFFFFF" width="7.4" height="7.4"/>
	<rect x="101.4" y="21.1" fill="#FFFFFF" width="7.4" height="7.4"/>
	<rect x="111.6" y="21.1" fill="#FFFFFF" width="7.4" height="7.4"/>
	<rect x="121.7" y="21.1" fill="#FFFFFF" width="7.4" height="7.4"/>
</g>
<g>
	<path fill="#F28246" d="M130.9,46.7h-1.8v-1.8c0-0.8-0.6-1.4-1.4-1.4s-1.4,0.6-1.4,1.4v1.8h-9.2v-1.8c0-0.8-0.6-1.4-1.4-1.4
		c-0.8,0-1.4,0.6-1.4,1.4v1.8h-9.2v-1.8c0-0.8-0.6-1.4-1.4-1.4s-1.4,0.6-1.4,1.4v1.8h-2.8c-2.5,0-4.6,2.1-4.6,4.6v23
		c0,2.5,2.1,4.6,4.6,4.6h31.3c2.5,0,4.6-2.1,4.6-4.6v-23C135.5,48.7,133.4,46.7,130.9,46.7z"/>
	<rect x="101.4" y="54.9" fill="#FFFFFF" width="7.4" height="7.4"/>
	<rect x="111.6" y="54.9" fill="#FFFFFF" width="7.4" height="7.4"/>
	<rect x="121.7" y="54.9" fill="#FFFFFF" width="7.4" height="7.4"/>
	<rect x="101.4" y="65.1" fill="#FFFFFF" width="7.4" height="7.4"/>
	<rect x="111.6" y="65.1" fill="#FFFFFF" width="7.4" height="7.4"/>
	<rect x="121.7" y="65.1" fill="#FFFFFF" width="7.4" height="7.4"/>
</g>
<g>
	<path fill="#F28246" d="M274.4,2.7h-1.8V0.9c0-0.8-0.6-1.4-1.4-1.4s-1.4,0.6-1.4,1.4v1.8h-9.2V0.9c0-0.8-0.6-1.4-1.4-1.4
		c-0.8,0-1.4,0.6-1.4,1.4v1.8h-9.2V0.9c0-0.8-0.6-1.4-1.4-1.4s-1.4,0.6-1.4,1.4v1.8h-2.8c-2.5,0-4.6,2.1-4.6,4.6v23
		c0,2.5,2.1,4.6,4.6,4.6h31.3c2.5,0,4.6-2.1,4.6-4.6v-23C279,4.8,276.9,2.7,274.4,2.7z"/>
	<rect x="244.9" y="11" fill="#FFFFFF" width="7.4" height="7.4"/>
	<rect x="255.1" y="11" fill="#FFFFFF" width="7.4" height="7.4"/>
	<rect x="265.2" y="11" fill="#FFFFFF" width="7.4" height="7.4"/>
	<rect x="244.9" y="21.1" fill="#FFFFFF" width="7.4" height="7.4"/>
	<rect x="255.1" y="21.1" fill="#FFFFFF" width="7.4" height="7.4"/>
	<rect x="265.2" y="21.1" fill="#FFFFFF" width="7.4" height="7.4"/>
</g>
<g>
	<path fill="#F28246" d="M274.4,46.7h-1.8v-1.8c0-0.8-0.6-1.4-1.4-1.4s-1.4,0.6-1.4,1.4v1.8h-9.2v-1.8c0-0.8-0.6-1.4-1.4-1.4
		c-0.8,0-1.4,0.6-1.4,1.4v1.8h-9.2v-1.8c0-0.8-0.6-1.4-1.4-1.4s-1.4,0.6-1.4,1.4v1.8h-2.8c-2.5,0-4.6,2.1-4.6,4.6v23
		c0,2.5,2.1,4.6,4.6,4.6h31.3c2.5,0,4.6-2.1,4.6-4.6v-23C279,48.7,276.9,46.7,274.4,46.7z"/>
	<rect x="244.9" y="54.9" fill="#FFFFFF" width="7.4" height="7.4"/>
	<rect x="255.1" y="54.9" fill="#FFFFFF" width="7.4" height="7.4"/>
	<rect x="265.2" y="54.9" fill="#FFFFFF" width="7.4" height="7.4"/>
	<rect x="244.9" y="65.1" fill="#FFFFFF" width="7.4" height="7.4"/>
	<rect x="255.1" y="65.1" fill="#FFFFFF" width="7.4" height="7.4"/>
	<rect x="265.2" y="65.1" fill="#FFFFFF" width="7.4" height="7.4"/>
</g>
<g>
	<path fill="#F28246" d="M226.9,2.7h-1.8V0.9c0-0.8-0.6-1.4-1.4-1.4s-1.4,0.6-1.4,1.4v1.8h-9.2V0.9c0-0.8-0.6-1.4-1.4-1.4
		c-0.8,0-1.4,0.6-1.4,1.4v1.8h-9.2V0.9c0-0.8-0.6-1.4-1.4-1.4s-1.4,0.6-1.4,1.4v1.8h-2.8c-2.5,0-4.6,2.1-4.6,4.6v23
		c0,2.5,2.1,4.6,4.6,4.6h31.3c2.5,0,4.6-2.1,4.6-4.6v-23C231.5,4.8,229.4,2.7,226.9,2.7z"/>
	<rect x="197.4" y="11" fill="#FFFFFF" width="7.4" height="7.4"/>
	<rect x="207.6" y="11" fill="#FFFFFF" width="7.4" height="7.4"/>
	<rect x="217.7" y="11" fill="#FFFFFF" width="7.4" height="7.4"/>
	<rect x="197.4" y="21.1" fill="#FFFFFF" width="7.4" height="7.4"/>
	<rect x="207.6" y="21.1" fill="#FFFFFF" width="7.4" height="7.4"/>
	<rect x="217.7" y="21.1" fill="#FFFFFF" width="7.4" height="7.4"/>
</g>
<g>
	<path fill="#F28246" d="M226.9,46.7h-1.8v-1.8c0-0.8-0.6-1.4-1.4-1.4s-1.4,0.6-1.4,1.4v1.8h-9.2v-1.8c0-0.8-0.6-1.4-1.4-1.4
		c-0.8,0-1.4,0.6-1.4,1.4v1.8h-9.2v-1.8c0-0.8-0.6-1.4-1.4-1.4s-1.4,0.6-1.4,1.4v1.8h-2.8c-2.5,0-4.6,2.1-4.6,4.6v23
		c0,2.5,2.1,4.6,4.6,4.6h31.3c2.5,0,4.6-2.1,4.6-4.6v-23C231.5,48.7,229.4,46.7,226.9,46.7z"/>
	<rect x="197.4" y="54.9" fill="#FFFFFF" width="7.4" height="7.4"/>
	<rect x="207.6" y="54.9" fill="#FFFFFF" width="7.4" height="7.4"/>
	<rect x="217.7" y="54.9" fill="#FFFFFF" width="7.4" height="7.4"/>
	<rect x="197.4" y="65.1" fill="#FFFFFF" width="7.4" height="7.4"/>
	<rect x="207.6" y="65.1" fill="#FFFFFF" width="7.4" height="7.4"/>
	<rect x="217.7" y="65.1" fill="#FFFFFF" width="7.4" height="7.4"/>
</g>
</svg>
