<?xml version="1.0" encoding="utf-8"?>
<!-- Generator: Adobe Illustrator 15.1.0, SVG Export Plug-In . SVG Version: 6.00 Build 0)  -->
<!DOCTYPE svg PUBLIC "-//W3C//DTD SVG 1.1//EN" "http://www.w3.org/Graphics/SVG/1.1/DTD/svg11.dtd">
<svg version="1.1" id="Layer_1" xmlns="http://www.w3.org/2000/svg" xmlns:xlink="http://www.w3.org/1999/xlink" x="0px" y="0px"
	 width="94px" height="74px" viewBox="0 0 94 74" enable-background="new 0 0 94 74" xml:space="preserve">
<g>
	<path fill="#126691" d="M40.4,15h-1.5H14v45h33V20.8C47,16.4,44.8,15,40.4,15z M37,45H19v-2h18V45z M41,39H19v-2h22V39z M41,33H19
		v-2h22V33z M41,26H19v-3h22V26z"/>
	<path fill="#126691" d="M56.5,15H55c-4.4,0-7,1.5-7,5.9V60h31V15H56.5z M73,36H54V22h19V36z"/>
</g>
</svg>
