<?xml version="1.0" encoding="utf-8"?>
<!-- Generator: Adobe Illustrator 15.1.0, SVG Export Plug-In . SVG Version: 6.00 Build 0)  -->
<!DOCTYPE svg PUBLIC "-//W3C//DTD SVG 1.1//EN" "http://www.w3.org/Graphics/SVG/1.1/DTD/svg11.dtd">
<svg version="1.1" id="Layer_1" xmlns="http://www.w3.org/2000/svg" xmlns:xlink="http://www.w3.org/1999/xlink" x="0px" y="0px"
	 width="45px" height="45px" viewBox="0 0 45 45" enable-background="new 0 0 45 45" xml:space="preserve">
<g>
	<path fill="#86CC4A" d="M38.4,38.4c-8.8,8.8-23,8.8-31.8,0s-8.8-23,0-31.8"/>
	<path fill="#86CC4A" d="M6.6,6.6c8.8-8.8,23-8.8,31.8,0s8.8,23,0,31.8"/>
	<polygon fill="#FFFFFF" points="18.5,34.2 8.6,24.3 11.9,21 18.5,27.6 33.4,12.8 36.7,16.1 	"/>
</g>
</svg>
