<?xml version="1.0" encoding="utf-8"?>
<!-- Generator: Adobe Illustrator 15.1.0, SVG Export Plug-In . SVG Version: 6.00 Build 0)  -->
<!DOCTYPE svg PUBLIC "-//W3C//DTD SVG 1.1//EN" "http://www.w3.org/Graphics/SVG/1.1/DTD/svg11.dtd">
<svg version="1.1" id="Layer_1" xmlns="http://www.w3.org/2000/svg" xmlns:xlink="http://www.w3.org/1999/xlink" x="0px" y="0px"
	 width="55px" height="55px" viewBox="0 0 55 55" enable-background="new 0 0 55 55" xml:space="preserve">
<g>
	<g>
		<circle fill="#D55500" cx="27.5" cy="27.5" r="27.5"/>
	</g>
</g>
<g>
	<path fill="#FFFFFF" d="M27.5,8.6c-10.4,0-18.9,8.4-18.9,18.9c0,10.4,8.4,18.9,18.9,18.9c10.4,0,18.9-8.4,18.9-18.9
		C46.4,17.1,37.9,8.6,27.5,8.6z M32.6,20.1c1.6,0,3,1.3,3,3c0,1.6-1.3,3-3,3c-1.6,0-3-1.3-3-3C29.6,21.4,31,20.1,32.6,20.1z
		 M22.1,20.1c1.6,0.1,2.9,1.5,2.8,3.1s-1.5,2.9-3.1,2.8c-1.6-0.1-2.9-1.5-2.8-3.1S20.4,20,22.1,20.1z M27.5,40.2
		c-7.8,0-9.1-5.9-9.1-5.9h18C36.5,34.3,35.4,40.2,27.5,40.2z"/>
</g>
</svg>
