<?xml version="1.0" encoding="utf-8"?>
<!-- Generator: Adobe Illustrator 15.1.0, SVG Export Plug-In . SVG Version: 6.00 Build 0)  -->
<!DOCTYPE svg PUBLIC "-//W3C//DTD SVG 1.1//EN" "http://www.w3.org/Graphics/SVG/1.1/DTD/svg11.dtd">
<svg version="1.1" id="Layer_1" xmlns="http://www.w3.org/2000/svg" xmlns:xlink="http://www.w3.org/1999/xlink" x="0px" y="0px"
	 width="55px" height="55px" viewBox="0 0 55 55" enable-background="new 0 0 55 55" xml:space="preserve">
<g>
	<g>
		<circle fill="#2E96D6" cx="27.5" cy="27.5" r="27.5"/>
	</g>
</g>
<g>
	<g>
		<path fill="#C0272D" d="M36.2,38.6c-0.6-0.3-1.6-0.4-2.4,0c0,0-0.5,0.3,0.1,1.3c0,0,0.5-0.2,1.1-0.2c0.6,0,1.1,0.2,1.1,0.2
			C36.7,38.9,36.2,38.6,36.2,38.6z"/>
		<path fill="#C0272D" d="M33.7,43.3c0.5-0.7,0.8-1.2,1.1-1.5c-0.4-0.5-0.5-0.8-0.9-1.4c-0.6-1-0.5-1.4-0.5-1.4s-0.3,0.9-0.6,1.9
			c-0.2,0.8,0,1.1,0.2,1.4C33.2,42.6,33.4,42.9,33.7,43.3z"/>
	</g>
</g>
<g>
	<g>
		<path fill="#C0272D" d="M15.2,42.1c0.5-0.7,0.8-1.2,1.1-1.5c-0.4-0.5-0.5-0.8-0.9-1.4c-0.6-1-0.5-1.4-0.5-1.4s-0.3,0.9-0.6,1.9
			c-0.2,0.8,0,1.1,0.2,1.4C14.7,41.4,14.9,41.7,15.2,42.1z"/>
	</g>
</g>
<g>
	<defs>
		<circle id="SVGID_1_" cx="27.5" cy="27.5" r="27.5"/>
	</defs>
	<clipPath id="SVGID_2_">
		<use xlink:href="#SVGID_1_"  overflow="visible"/>
	</clipPath>
	<g clip-path="url(#SVGID_2_)">
		<g>
			<g>
				<path fill="#FFFFFF" d="M21.5,18.7c0,2.9-2.4,5.3-5.3,5.3c-2.9,0-5.3-2.4-5.3-5.3c0-2.9,2.4-5.3,5.3-5.3
					C19.1,13.3,21.5,15.7,21.5,18.7L21.5,18.7z M21.5,18.7"/>
				<g>
					<path fill="none" d="M11.4,40.4l-2-8.9L9,40.9c-0.1,1.4,0.8,2.8,2.5,3.3c1.3,0.4,8.3,0.6,8.3,0.6l-7-2.7
						C12.1,41.9,11.6,41.2,11.4,40.4z"/>
					<path fill="#FFFFFF" d="M24.3,45.2c0.3-0.2,0.5-0.6,0.7-1c0.5-1.2-0.1-2.6-1.4-3.1l-7.8-3l-1.7-7.7c0,0,1.5,5.2,2.4,5.5
						c0.9,0.3,2.9,0.9,2.9,0.9l0-0.3c-2.1-0.4-3.7-2.3-3.7-4.5c0-1.2,0.4-2.2,1.1-3.1c0.1-0.1,0.2-0.2,0.3-0.3c0,0,0,0,0,0
						c0.5-0.5,1.1-0.8,1.7-1c-0.4-0.3-1-0.6-1.5-0.7c-4.9-0.8-1.4-0.2-6.3-1c-2-0.3-3.8,1-4.1,3C5,41.7,4.3,46.1,4.3,46.7
						c0,1.2,0.2,2.6,0.9,2.6H1.8c-1.3,0-1.8,0.6-1.8,1.8v13.5C0,66,0.8,67,2,67c1.3,0,2-1,2-2.3v-9.3h9v9.3c0,1.3,1.1,2.3,2.4,2.3
						c1.3,0,2.3-1,2.3-2.3c0-14.7,0.1-13.7-0.1-14.2l2.8,0.2l-2.1,12.9c-0.3,1.6,0.8,3.1,2.4,3.3c1.6,0.3,3.1-0.8,3.3-2.4l2.6-16
						C26.9,47,25.9,45.5,24.3,45.2z M11.5,44.2C9.8,43.7,9,42.4,9,40.9l0.4-9.4l2,8.9c0.2,0.8,0.7,1.4,1.5,1.7l7,2.7
						C19.9,44.9,12.8,44.6,11.5,44.2z"/>
				</g>
			</g>
		</g>
		<g>
			<g>
				<path fill="#FFFFFF" d="M39.1,25.6c-1.9,0-3.6-2.2-3.6-4.2h7.2C42.7,23.3,41,25.6,39.1,25.6L39.1,25.6z M39.1,24.5"/>
				<path fill="#FFFFFF" d="M16.8,33.6c-0.8-2,0.1-4.4,2.2-5.2c1.5-0.6,3.1-0.2,4.2,0.7l2.8,0.1l5.7-7.8c0.4-0.6,1.4-1,1.4-1.1v0.2
					c0,3.2,2.2,5.4,4.7,5.9c-0.2,1.4-0.9,2.7-2.2,3.5c-1.5,1-2.1,1.5-4.5,1.6l-6.8-0.2l-2.2-0.1c-0.5-0.8-1.5-1.2-2.4-0.9
					c-1,0.4-1.5,1.6-1.1,2.6c0.4,1,1.6,1.5,2.6,1.1c0.4-0.2,0.7-0.4,0.9-0.8l2.2,0.1l4.8,0.1c1,0,2.7-0.1,3.7-0.1
					c1.4,0,2.7-1,3.9-1.7c1.8-1.2,2.7-3.1,2.9-5.2c2.5-0.4,4.3-2.5,4.3-5.9v-0.1c1,0.2,1.7,0.6,2.1,1.4l8.5,18.3
					c0.6,1.3,0.1,2.7-1.2,3.3c-1.3,0.6-2.7,0-3.3-1.2l-4-8.9c0,1,0,11.4,0,31.2c0,1.7-1.4,3-3.1,3c-1.7,0-3.1-1.3-3.1-3V47.3h-3
					v17.2c0,1.7-0.9,3-2.5,3c-1.7,0-2.8-1.3-2.8-3c0-17.9,0.1-24.9,0.1-29.3c-0.7-0.1-1.2,0-1.9,0.1c-0.2,0.7-0.7,1.2-1.4,1.5
					c-0.6,0.2-7.3,0.6-8,0.6c-1.4,0.1-2.5-0.9-2.6-2.3C17.5,34.8,17.1,34.3,16.8,33.6L16.8,33.6z M16.8,33.6"/>
			</g>
			<path fill="#FFFFFF" d="M42.7,17.9c-1,0.8-2.2,1.3-3.6,1.3c-1.4,0-2.6-0.5-3.6-1.3c-0.9-0.7-1.6-1.7-2-2.8
				c-0.2-0.6-0.3-1.2-0.3-1.8c0-3.2,2.6-5.9,5.9-5.9c3.2,0,5.9,2.6,5.9,5.9c0,0.6-0.1,1.3-0.3,1.8C44.3,16.2,43.6,17.2,42.7,17.9
				L42.7,17.9z M42.7,17.9"/>
		</g>
	</g>
</g>
</svg>
