<?xml version="1.0" encoding="utf-8"?>
<!-- Generator: Adobe Illustrator 15.1.0, SVG Export Plug-In . SVG Version: 6.00 Build 0)  -->
<!DOCTYPE svg PUBLIC "-//W3C//DTD SVG 1.1//EN" "http://www.w3.org/Graphics/SVG/1.1/DTD/svg11.dtd">
<svg version="1.1" id="Layer_1" xmlns="http://www.w3.org/2000/svg" xmlns:xlink="http://www.w3.org/1999/xlink" x="0px" y="0px"
	 width="185px" height="248px" viewBox="0 0 185 248" enable-background="new 0 0 185 248" xml:space="preserve">
<rect x="-0.3" y="0.3" fill="#9F53A1" width="185" height="248"/>
<g>
	<g>
		<g>
			<path fill="#5F2A63" d="M53,190.6c0,3-2.4,5.4-5.4,5.4h-0.2c-3,0-5.4-2.4-5.4-5.4v-49.2c0-3,2.4-5.4,5.4-5.4h0.2
				c3,0,5.4,2.4,5.4,5.4V190.6z"/>
		</g>
	</g>
	<g>
		<g>
			<path fill="#5F2A63" d="M67,190.6c0,3-2.4,5.4-5.4,5.4h-0.2c-3,0-5.4-2.4-5.4-5.4v-49.2c0-3,2.4-5.4,5.4-5.4h0.2
				c3,0,5.4,2.4,5.4,5.4V190.6z"/>
		</g>
	</g>
	<g>
		<path fill="#5F2A63" d="M131,191.8c0,2.3-1.9,4.2-4.2,4.2h-0.6c-2.3,0-4.2-1.9-4.2-4.2v-38.6c0-2.3,1.9-4.2,4.2-4.2h0.6
			c2.3,0,4.2,1.9,4.2,4.2V191.8z"/>
	</g>
	<g>
		<path fill="#5F2A63" d="M145,191.8c0,2.3-1.9,4.2-4.2,4.2h-0.6c-2.3,0-4.2-1.9-4.2-4.2v-38.6c0-2.3,1.9-4.2,4.2-4.2h0.6
			c2.3,0,4.2,1.9,4.2,4.2V191.8z"/>
	</g>
	<g>
		<g>
			<path fill="#5F2A63" d="M65.5,77.5c0,6.6-5.6,12.2-12.2,12.2c-6.6,0-12.3-5.8-12.2-12.5c0.1-6.7,5.6-12.1,12.4-12
				C60.4,65.4,65.6,70.7,65.5,77.5z"/>
		</g>
	</g>
	<g>
		<path fill="#FFFFFF" d="M79.7,77.4c0-6.8,5.2-12.1,12-12.1c6.9-0.1,12.3,5.3,12.3,12.2c0,6.6-5.5,12.2-12.1,12.3
			C85.3,89.9,79.7,84.3,79.7,77.4z M99,82.3c-4.6,0-8.7,0-12.9,0c-0.4,0-0.8,0.1-1.2,0.2C88.1,87.6,95.5,87.6,99,82.3z"/>
	</g>
	<g>
		<g>
			<path fill="#9F53A1" d="M60.3,82.7c0.3,1.5-1.3,3.1-3.5,3.6s-4.4-0.3-4.7-1.8"/>
		</g>
	</g>
	<g>
		<g>
			<path fill="#5F2A63" d="M29.2,111c-0.7,0-1.5-0.2-2.1-0.6c-1.3-0.8-2.1-2.3-1.9-3.9l3.2-31.8c0.2-2.2,2.2-3.9,4.5-3.6
				c2.2,0.2,3.9,2.2,3.6,4.5l-2.4,23.3l7.9-5.2c0.7-0.4,1.4-0.5,2.2-0.5l32,0c0,0,0,0,0,0c2.2,0,4,1.6,4.1,3.9c0,2.2-1.8,4-4,4
				L45.5,101l-14.1,9.3C30.8,110.8,30,111,29.2,111z"/>
		</g>
	</g>
	<g>
		<g>
			<rect x="42" y="100" fill="#5F2A63" width="25" height="52"/>
		</g>
	</g>
	<g>
		<path fill="#5F2A63" d="M158.8,109.7c-0.3,0-0.6,0.1-0.9,0l-22-5.7H123c-0.2,0-0.5-0.1-0.7-0.2l-18.8-3.8
			c-1.9-0.4-3.1-2.3-2.7-4.2c0.4-1.9,2.2-3,4.1-2.6l18.4,3.8h13c0.3,0,0.6-0.1,0.9,0l17.4,4.5l-3.1-24c-0.2-1.9,1.1-3.7,3-3.9
			c1.9-0.2,3.7,1.1,3.9,3l3.7,29.1c0.1,1.2-0.3,2.3-1.2,3.1C160.5,109.4,159.6,109.7,158.8,109.7z"/>
	</g>
	<g>
		<path fill="#5F2A63" d="M129.8,70.4c6.4-0.1,11.7,5,11.8,11.5c0.1,6.4-5.4,12-11.7,12c-6.3,0-11.6-5.4-11.7-11.7
			C118.3,75.6,123.3,70.5,129.8,70.4z"/>
	</g>
	<g>
		<g>
			<path fill="#9F53A1" d="M123.3,87.1c-0.3,1.4,1.2,2.9,3.4,3.4s4.2-0.3,4.5-1.7"/>
		</g>
	</g>
	<g>
		<polyline fill="#5F2A63" points="115,155 150.9,155 138.5,101.8 136.5,97 123,97 		"/>
	</g>
	<g>
		<path fill="#FFFFFF" d="M118.7,147.5l-9.6-51.7c-0.4-2.2-2.3-3.8-4.5-3.8H79c-2.2,0-4.1,1.7-4.5,3.8l-9.3,50
			c-0.5,2.5,1.2,4.9,3.7,5.4c2.5,0.5,5.4-1.2,5.8-3.6l5.3-25.6v19.3v10.8v38.3c0,3,1.4,5.6,4.4,5.6h0.4c3,0,6.2-2.7,6.2-5.6V148h3
			v42.4c0,3,1.6,5.6,4.6,5.6H99c3,0,6-2.7,6-5.6v-38.3v-10.8v-20.8l5.1,28.7c0.4,2.2,2.2,3.7,4.3,3.7c0.3,0,0.5,0,0.8-0.1
			C117.6,152.4,119.2,150,118.7,147.5z"/>
	</g>
	<g>
		<g>
			<path fill="#C1272D" d="M95.7,103.4c-0.5-1.8-1.1-3.5-1.1-3.5s0.2,0.8-0.9,2.6c-1.5,2.5-1.4,2.3-10.1,14.4l2.2,3.1
				c0,0,7.2-10.5,9.6-14C95.7,105.5,96.1,104.9,95.7,103.4z"/>
		</g>
		<g>
			<path fill="#C1272D" d="M93.8,99.2c-1.1-0.5-3-0.8-4.4,0c0,0-0.9,0.5,0.2,2.3c0,0,0.9-0.3,2-0.3c1,0,2,0.3,2,0.3
				C94.7,99.7,93.8,99.2,93.8,99.2z"/>
		</g>
		<g>
			<path fill="#C1272D" d="M94.1,109.3c-0.6,0.9-1.3,1.9-2,3c2.6,3.9,5.2,7.8,5.2,7.8l2.2-3.1C97.1,113.6,95.3,111.1,94.1,109.3z"/>
		</g>
		<g>
			<path fill="#C1272D" d="M89.1,107.9c0.9-1.3,1.5-2.2,2-2.8c-0.7-1-1-1.6-1.6-2.5c-1.1-1.8-0.9-2.6-0.9-2.6s-0.6,1.6-1.2,3.5
				c-0.4,1.4,0,2,0.3,2.6C88.2,106.5,88.6,107.2,89.1,107.9z"/>
		</g>
	</g>
</g>
</svg>
