<?xml version="1.0" encoding="utf-8"?>
<!-- Generator: Adobe Illustrator 15.1.0, SVG Export Plug-In . SVG Version: 6.00 Build 0)  -->
<!DOCTYPE svg PUBLIC "-//W3C//DTD SVG 1.1//EN" "http://www.w3.org/Graphics/SVG/1.1/DTD/svg11.dtd">
<svg version="1.1" id="Layer_1" xmlns="http://www.w3.org/2000/svg" xmlns:xlink="http://www.w3.org/1999/xlink" x="0px" y="0px"
	 width="353.9px" height="277.4px" viewBox="0 0 353.9 277.4" enable-background="new 0 0 353.9 277.4" xml:space="preserve">
<path fill-rule="evenodd" clip-rule="evenodd" fill="#E6E6E6" d="M353.9,144.2L353.9,144.2l0-0.8l-2.3-1.4l-2.9-2.7l-0.7-0.4
	l-2.2-2.1l-6.7-3.2l-3.4-2.9l-1.4-0.8l-1.9-2l-0.8-0.5l-1.9-0.8l-1-0.6l-0.9,1.1l0.8,1l2.8,1.6l0.4,0.6l0.4,0.8l0.5,0.7l1.2,0.6
	l0.8,0.6l1.5,1.4l-0.9,0.4l-1.9,0.5l-0.8,1.4h-0.4l0-0.4l0-0.9h-0.5l0.1,0.3l0.5,1.2l-0.1,0.9l-0.4,0.5l-0.6,0.5l-0.6,0.7l-0.3,1.1
	l-0.3,0.6l-0.6,0.1l-0.6-0.1l-0.3,0.1l0,0.5l0.2,0.3l0.2,0.2l0,0.3l0.2,0.1l0.1,0.5l-0.2,1.2l-0.7,0.9h-1.8l-0.1-1.1l0.8-3.4
	l-6.6-4.3l-1.5-0.3l-0.2-1.5l-2.2-1.3l-2.9-0.7l-2.3,0.6l-2.2-1.9l-0.9-0.4l-2.5,1l-5.8-1.5l-2.1,0l-1.9,0.3l-5-0.2l-1.2,0.5l-0.6,0
	l-0.8,0.3l-0.6,0.3l-0.1,0.2l-0.5-0.9l0-0.9l0.1-3.3l1.7-15.7l1-14l0.6-7l1.2-19.2l1.1-17.7l-0.1-19.5l-0.4-19l-0.3-14.8l-14.4,0
	l-14.4,0l-14.4,0l-14.4,0l-14.4,0l-14.4,0L192,0.5l-14.4,0.5h-2.8l-1.3-0.2l-0.5,0.3l0,18.7l0,18.8l-28.7-0.2l-0.2,0l-0.3,0
	l-0.3,1.1l1.5,0.7l2,0.4l1,0.5l0.5,1.6l1.3,0.2l1.7-0.3l1.8,0.1l0.7,0.6l0.6,1.1l0.4,1.2l0.1,1.1l0.3,0.4l1.3,0.3l0.6,0.4l0.3,0.5
	l0.3,1.2l0.3,0.7l0.6,0.9l2.3,2.6l0.6,0.3l1.6-0.2l0.7,0.1l0.3,0.4l0.3,1.3l0.3,0.6l2.3,2.8l0.4,0.7l0.3,1.4l0.8,0.7l2.5,0.9
	l0.4,0.3l0.8,0.9l0.3,0.2l0.6-0.3l-0.1-0.6l-0.2-0.6l0.1-0.3l1.1,0l0.9,0.2l0.2,0.5l-1.1,1.1l1.4,0.7l1.9,1.9l1.2,0.7l4.5,1.4l0.8,0
	l0.4-0.5l0.6,0.5v0.5l0,0.8l1.1,0.8l2.4,1.2l1,0.8l4.4,6.4l0.5,2.5l-1.3,1.6V84l1-0.1l0.5-0.1l0.3-0.2l0.2-0.5l0.9,0.5l-0.2,1
	l-0.4,1.2l0.2,1.1l-0.5,1l0.6,0.3l1,0.1l0.8,0.5l0,0.7l-0.5,0.5l-0.6,0.5l-0.3,0.7l0.8-0.2l1,0l0.9,0.2l0.4,0.2l0.4-0.2l1.7-0.5
	l0.6,0l0.3,1.5l0.4,0.6l1.6-0.8l0.7,0.2l0.6,0.4l0.4,0.4l0.3,0.8l-0.1,0.6l0.2,0.4l2.1,0.3l0.7,0.3l0.5,0.3l0.4,0.2l0.7-0.1l0.6-0.3
	l0.4,0.1l0.1,1l0,0.9l0.1,0.4l0.8,1.3l-1-0.3l-0.9-0.1l-0.6,1.1l-0.2,1.7h-0.6v-1.3h1.5l0.5,0.5l-0.4,0.9l-1,0.8l-1.2,0.3l-0.5,0.2
	l0.7,0.5l1,0.3l0.4-0.2l0,0.7l-0.4,0.2l-0.5-0.2l-0.8-0.3l-0.5,0.2v0.2l0.4,0.1l-0.1,0l0.4,0.4l0.5,0.8l0.3,0.4l-0.8-0.1l-0.2-0.1
	l-0.3-0.3l-0.7,0.8l0.1,0.7l0.6,0.5l0.9,0.4l-0.8,0.4l-0.8,0.6l-0.5,0.9l0.2,1.3l1.9,1.1l-0.2,0.7l-2.1,0.6v0.4l1.5,0.8l-1.3,2.3
	l0.6,2.1h0.5l0.2-1.2l0.1-0.5l0.2-0.3l0.4-0.3l-0.2,0.5l-0.4,0.9l-0.2,0.9l0,0.6h0l-1.2-0.1l-1.3-0.1l-5.9-0.1l-9-0.1l-9,0.9l-9,0.9
	h-0.4l-8.6-0.9l-9-0.4l-9-0.2l-9-0.1l-9,0l-3,0l-1,0.5l-0.8,1l-1.5,2.6l-1.2,2.1l-3.2,5.5l-4.5,7.8l-5.2,9l-5.2,9l-2.4,4.2l-2.1,3.6
	l-3.2,5.5l-1.2,2.1l-0.4,1.2l0,1.3l0.5,1.1l8.5,11.1l-1.3,3l-0.7,0.8l-0.9,0.4l-0.8,0.1l-0.8,0.2L97,192l-0.2,2.2l0.2,4.2l-0.7,2
	l-1.4,1.6l-0.3,0.8l0.1,1.4l0.1,0.6l0.6,1.7l0,0.5l-0.1,1l0,0.5l1.2,3.3l0.1,1.3l-0.3,1l-1.4,2.6l-1.4,4l-1.2,1.4l-1.3,0.2l5.5,4
	l7.4,5.3l9.2,8.4l9.5,7l6.8,4.2l1.4,0.9l5.6,3.2l1.5,0.7l13.8,6.2l9.8,1.9l8,0.9l8.7,0.2l7.5-0.5l0.8-0.2l5.1-0.5l4.5,0.4l0.7,0.1
	l3.1,0.5l5.2,1.2l6.5,2.4l10.2,4.6l0.3,0.1l9.3,3.9l0.3,0.2l-1.4-4.5l0-1.1l0.2-1.1l0.3-1.1l0.5-1l0.8-0.8l1.8-1l0.8-0.6l0.6-0.9
	l0.4-1l0.6-0.9l1-0.9l6.3-4.4l1.4-1.4l0.7-0.5l2.9-1.1l1-0.1l1.2,0.3l1.7,1.3l1,0.4l1-0.5l0-0.4l0-0.1l-0.4-1l-0.1-0.5l0.2-0.5
	l2.8-4.9l1.3-1.4l1.6-1.3l1.7-0.8l7-1.7l0.4-0.4l0-1.1l-0.2-0.3l-0.8-0.4l-0.3-0.3l-0.1-0.4l-0.1-1l-0.1-0.3l-0.4-0.7l-0.2-0.3
	l-0.4-0.4l-0.5-0.2l-1.4-0.2l-0.4-1l0.4-0.6l0.7-0.5l0.4-0.7l-0.2-0.8l-0.5-0.7l-0.3-0.8l0.4-1.1l0.9-0.7l1,0.1l0.7,0.7l0.2,1.3
	l0.9-0.6l1.6-2l0.5-0.2l0.7-0.3l1,0.1l0.7,0.4l0.7,0.3l1-0.2l1.5-1.5l0.7-0.3l0.1,1.3l0.3-0.5l0.1-0.2l1.9,1.4l-0.1-2.1l0.1-1.1
	l0.4-0.9l0.7-0.4l1.4-0.4l0.5-0.6l0.6-1.2l0.9-1l2-1.8l0.6-0.7l0.3-0.5l0.5-0.3l1.1-0.1l0.8,0.1l1.6,0.6l0.8-0.1l0.8-0.7l0.3-1.1
	l0-1.2l-0.3-3.4l0.2-0.4l0.7-0.8l0.2-0.5l-0.1-1.2l-0.1-0.2l-0.3-0.4l-0.6-0.5l-0.7-0.9l-1.2-3l-0.6-1l-1.3-1.6l-0.6-0.9l-0.3-0.9
	l0.1-1.3l0.5-0.8l1.6-1.4l0.6-0.9l0.5-0.7l0.8-1.9l0-1.8l-1.3-1.2l1-3.1l0.8-1.2l0.9-0.7l0.4-0.3l2-1l6.6-2.2l2.3-1.1l8.3-6.4
	l5.6-4.4l5.7-4.4l4.8-4.4l4.8-4.4v0l3-1.7l4.9-3.5l3.3-3l2.1-3.4l0.4-0.5l1.4,0l1.1-0.4l1-0.5l1.1-0.5l0.4,0.5l0.4-0.9l-0.1-0.7
	l0.2,0.2L353.9,144.2z"/>
<g>
	<defs>
		<path id="SVGID_1_" d="M261.3,245.7l7-1.7l0.4-0.4l0-1.1l-0.2-0.3l-0.8-0.4l-0.3-0.3l-0.1-0.4l-0.1-1l-0.1-0.3l-0.4-0.7l-0.2-0.3
			l-0.4-0.4l-0.5-0.2l-1.4-0.2l-0.4-1l0.4-0.6l0.7-0.5l0.4-0.7l-0.2-0.8l-0.5-0.7l-0.3-0.8l0.4-1.1l0.9-0.7l1,0.1l0.7,0.7l0.2,1.3
			l0.9-0.6l1.6-2l0.5-0.2l0.7-0.3l1,0.1l0.7,0.4l0.7,0.3l1-0.2l1.5-1.5l0.7-0.3l0.1,1.3l0.3-0.5l0.1-0.2l1.9,1.4l-0.1-2.1l0.1-1.1
			l0.4-0.9l0.7-0.4l1.4-0.4l0.5-0.6l0.6-1.2l0.9-1l2-1.8l0.6-0.7l0.3-0.5l0.5-0.3l1.1-0.1l0.8,0.1l1.6,0.6l0.8-0.1l0.8-0.7l0.3-1.1
			l0-1.2l-0.3-3.4l0.2-0.4l0.7-0.8l0.2-0.5l-0.1-1.2l-0.1-0.2l-0.3-0.4l-0.6-0.5l-0.7-0.9l-1.2-3l-0.6-1l-1.3-1.6l-0.6-0.9l-0.3-0.9
			l0.1-1.3l0.5-0.8l1.6-1.4l0.6-0.9l0.5-0.7l0.8-1.9l0-1.8l-1.3-1.2l1-3.1l-121.2-53.2l-53,9L88,145.2l-35-20.5l-53,26l6,38.5
			l112.5,49.5l88-5L261.3,245.7z"/>
	</defs>
	<clipPath id="SVGID_2_">
		<use xlink:href="#SVGID_1_"  overflow="visible"/>
	</clipPath>
	<g clip-path="url(#SVGID_2_)">
		<path fill="none" d="M123.2,155.1c0,0-0.1,0-0.1,0C123.2,155.1,123.2,155.1,123.2,155.1z"/>
		<path fill="#808080" d="M179.2,147.9c0,0-15.1-10.3-37.2,0c-4.3,2-17.3,6.6-19.2,7.2c0,0,0.2,0,0.1,0c-16.8,4.9-32.3,8.1-44.9,8.8
			c-0.9,0.2-7.4,1.9-6.7,9c0.7,7.4,8.5,8.5,13,8.5c2.1,0,25.9-1.2,40.7-5.3c0.9-0.2,1.8,0.3,2,1.1c0.2,0.9-0.3,1.7-1.1,2
			c-15.2,4.2-39.4,5.4-41.5,5.4c-9.6,0-15.5-4.2-16.2-11.4c-0.7-8.3,5.9-11.8,9.5-12.4c0.1,0,0.1,0,0.2,0c2.3-0.1,4.7-0.3,7.2-0.6
			l-29.4-17.9c-2.8-1.8-6.6-1-8.4,1.8c-1.3,2-1.2,4.6,0,6.5l-8.3-5c-3.4-2.2-8-1.2-10.2,2.2c-2.2,3.4-1.2,7.8,2,10.1l-6.4-4
			c-4.4-2.8-10.2-1.5-13,2.9c-2.8,4.4-1.5,10.2,2.9,13c0,0,43.8,33.2,90,46.1c16.6,4.6,59-15.9,77.1-11.7
			c18,4.2,110.7,42.6,110.7,42.6v-49.8L179.2,147.9z"/>
		<path opacity="0.18" fill="#AAAAAA" d="M329.6,265.2c0,0-129.2-53-147.2-57.2c-18-4.2-60.6,16.3-77.2,11.7
			c-46.2-12.8-90-46.1-90-46.1c-4.4-2.8-5.7-8.6-2.9-13c2.8-4.4,8.6-5.7,13-2.9l6.4,4c-3.3-2.3-4.2-6.7-2-10.1
			c2.2-3.4,6.8-4.4,10.2-2.2l8.3,5c-1.2-1.9-1.3-4.5,0-6.5c1.8-2.8,5.6-3.7,8.4-1.8l22,13.1c-2.5,0.3-1.5,1.9-3.8,2
			c-0.1,0-7.4-0.8-7.5-0.8c-3.6,0.7-1.7,8.2-1,16.5c0.6,7.3,9.4,11.7,19,11.7c2.1,0,26.4-1.2,41.5-5.4c0.9-0.2,4.2-1.8,3.9-2.6
			c-0.2-0.9-1-8.2-1.8-8c-14.8,4.1-41.1,5-43.2,5c-4.6,0-7.8,3.7-8.5-3.7c-0.6-7.1,0.8-5.8,1.7-6c12.5-0.6,28.1-3.9,44.9-8.8
			c0,0-0.1,0-0.1,0c1.9-0.6,15-5.2,19.3-7.2c22.1-10.3,37.3,0,37.3,0l201.5,85.4C381.8,237.4,362.8,256.6,329.6,265.2z"/>
		<path fill="#004F83" d="M328.6,261.2c0,0-129.2-53-147.2-57.2c-18-4.2-60.6,16.3-77.2,11.7c-46.2-12.8-90-46.1-90-46.1
			c-4.4-2.8-5.7-8.6-2.9-13c2.8-4.4,8.6-5.7,13-2.9l6.4,4c-3.3-2.3-4.2-6.7-2-10.1c2.2-3.4,6.8-4.4,10.2-2.2l8.3,5
			c-1.2-1.9-1.3-4.5,0-6.5c1.8-2.8,5.6-3.7,8.4-1.8L85.1,160c-2.5,0.3-4.9,0.5-7.2,0.6c-0.1,0-0.1,0-0.2,0
			c-3.6,0.7-10.2,4.2-9.5,12.4c0.7,7.3,6.6,11.4,16.2,11.4c2.1,0,26.4-1.2,41.5-5.4c0.9-0.2,1.4-1.1,1.1-2c-0.2-0.9-1.1-1.3-2-1.1
			c-14.8,4.1-38.6,5.3-40.7,5.3c-4.6,0-12.4-1.1-13-8.5c-0.6-7.1,5.8-8.8,6.7-9c12.5-0.6,28.1-3.9,44.9-8.8c0,0-0.1,0-0.1,0
			c1.9-0.6,15-5.2,19.3-7.2c22.1-10.3,37.3,0,37.3,0l201.5,85.4C380.8,233.4,361.8,252.6,328.6,261.2z"/>
	</g>
</g>
<g>
	<path opacity="0.18" fill-rule="evenodd" clip-rule="evenodd" fill="#AAAAAA" d="M117,85.7L117,85.7l-2.6-4c3.2-4.8,6.1-9,8.1-12.1
		c1.7-2.5,3.5-5.4,1.5-12c-2.5-8.5-5.4-16.5-5.4-16.5s0,0,0,0c-0.5-1.6-1.5-2.2-1.5-2.2c-6.1-2.8-16.7-4.1-24.6,0
		c0,0-1.1,0.6-1.5,2.2c0,0,0,0,0,0s-2.8,8-5.3,16.5c-2,6.7-0.1,9.5,1.5,12c1.6,2.4,5.9,8.7,8.3,12.2c-6.1,8.7-14.8,21-27.8,39.3
		L78,135.5c0,0,14-20.7,26.9-39.8l-0.1,0.1L107,99c0,0,0,0,0,0c12.2,18.1,24.7,36.5,24.7,36.5l10.4-14.4
		C130.9,105.4,122.9,94.1,117,85.7z M104.8,68.5L104.8,68.5l-0.2-0.3c-3.1-4.6-6.8-10.3-9.4-14.6c-0.5-0.9-1-1.7-1.4-2.5
		c0,0,0,0,0,0c0,0,5.2-1.5,11-1.5s11,1.5,11,1.5c0.2-0.4,0.5-0.8,0.7-1.1c-0.5,1.1-1.2,2.3-1.9,3.6
		C111.2,58.9,109.6,61.6,104.8,68.5C104.8,68.5,104.8,68.5,104.8,68.5z"/>
	<g>
		<g>
			<g>
				<path fill="#C1272D" d="M123.7,55.1c-2.5-8.5-5.4-16.5-5.4-16.5s1,4-4.1,12.5c-7.1,11.7-6.7,10.7-46.9,67.6l10.3,14.4
					c0,0,33.4-49.4,44.5-65.9C123.8,64.6,125.7,61.8,123.7,55.1z"/>
				<path fill="#991621" d="M116.7,36.4c-6.1-2.8-16.7-4.1-24.6,0c0,0-4.7,2.6,1.3,12.2c0,0,5.2-1.5,11-1.5c5.8,0,11,1.5,11,1.5
					C121.4,39,116.7,36.4,116.7,36.4z"/>
				<path fill="#C1272D" d="M116.1,82.5c-2.9,4.4-6.2,9.2-9.5,14.1c12.2,18.1,24.7,36.5,24.7,36.5l10.4-14.4
					C130.2,102.5,122.1,91,116.1,82.5z"/>
				<path fill="#C1272D" d="M95.1,79.4c4.2-6,7.2-10.1,9.4-13.3c-3.2-4.7-7-10.6-9.7-15c-5.1-8.5-4.2-12.4-4.2-12.4s-2.8,8-5.3,16.5
					c-2,6.7-0.1,9.5,1.5,12C88.4,69.5,92.7,75.8,95.1,79.4z"/>
			</g>
		</g>
		<polygon fill-rule="evenodd" clip-rule="evenodd" fill="#991621" points="107.2,97.3 104.5,93.4 114,79.2 116.6,83.2 		"/>
		<polygon fill-rule="evenodd" clip-rule="evenodd" fill="#991621" points="104.5,65.9 95.1,79.3 94.9,79 104.2,65.6 		"/>
	</g>
</g>
<path fill="none" stroke="#FFFFFF" stroke-width="4" stroke-linecap="round" stroke-miterlimit="10" d="M127,177.2
	c0,0-18,4.8-39.5,5.5c-20,0.6-17.5-11.4-17.5-11.4s0.5-5.5,7.2-8.4c0,0,3-0.7,9.2-1.7c6.3-1,9.8-2,9.8-2"/>
</svg>
