<?xml version="1.0" encoding="utf-8"?>
<!-- Generator: Adobe Illustrator 15.1.0, SVG Export Plug-In . SVG Version: 6.00 Build 0)  -->
<!DOCTYPE svg PUBLIC "-//W3C//DTD SVG 1.1//EN" "http://www.w3.org/Graphics/SVG/1.1/DTD/svg11.dtd">
<svg version="1.1" id="Layer_1" xmlns="http://www.w3.org/2000/svg" xmlns:xlink="http://www.w3.org/1999/xlink" x="0px" y="0px"
	 width="279px" height="79.4px" viewBox="0 0 279 79.4" enable-background="new 0 0 279 79.4" xml:space="preserve">
<g>
	<path fill="#1E956B" d="M35.9,3.2h-1.8V1.4c0-0.8-0.6-1.4-1.4-1.4s-1.4,0.6-1.4,1.4v1.8h-9.2V1.4c0-0.8-0.6-1.4-1.4-1.4
		c-0.8,0-1.4,0.6-1.4,1.4v1.8h-9.2V1.4C10.1,0.6,9.5,0,8.7,0S7.4,0.6,7.4,1.4v1.8H4.6C2.1,3.2,0,5.3,0,7.8v23c0,2.5,2.1,4.6,4.6,4.6
		h31.3c2.5,0,4.6-2.1,4.6-4.6v-23C40.5,5.3,38.4,3.2,35.9,3.2z"/>
	<rect x="6.4" y="11.5" fill="#FFFFFF" width="7.4" height="7.4"/>
	<rect x="16.6" y="11.5" fill="#FFFFFF" width="7.4" height="7.4"/>
	<rect x="26.7" y="11.5" fill="#FFFFFF" width="7.4" height="7.4"/>
	<rect x="6.4" y="21.6" fill="#FFFFFF" width="7.4" height="7.4"/>
	<rect x="16.6" y="21.6" fill="#FFFFFF" width="7.4" height="7.4"/>
	<rect x="26.7" y="21.6" fill="#FFFFFF" width="7.4" height="7.4"/>
</g>
<g>
	<path fill="#1E956B" d="M83.6,3.2h-1.8V1.4c0-0.8-0.6-1.4-1.4-1.4S79,0.6,79,1.4v1.8h-9.2V1.4c0-0.8-0.6-1.4-1.4-1.4
		C67.7,0,67,0.6,67,1.4v1.8h-9.2V1.4c0-0.8-0.6-1.4-1.4-1.4s-1.4,0.6-1.4,1.4v1.8h-2.8c-2.5,0-4.6,2.1-4.6,4.6v23
		c0,2.5,2.1,4.6,4.6,4.6h31.3c2.5,0,4.6-2.1,4.6-4.6v-23C88.2,5.3,86.1,3.2,83.6,3.2z"/>
	<rect x="54.1" y="11.5" fill="#FFFFFF" width="7.4" height="7.4"/>
	<rect x="64.3" y="11.5" fill="#FFFFFF" width="7.4" height="7.4"/>
	<rect x="74.4" y="11.5" fill="#FFFFFF" width="7.4" height="7.4"/>
	<rect x="54.1" y="21.6" fill="#FFFFFF" width="7.4" height="7.4"/>
	<rect x="64.3" y="21.6" fill="#FFFFFF" width="7.4" height="7.4"/>
	<rect x="74.4" y="21.6" fill="#FFFFFF" width="7.4" height="7.4"/>
</g>
<g>
	<path fill="#1E956B" d="M131.3,3.2h-1.8V1.4c0-0.8-0.6-1.4-1.4-1.4c-0.8,0-1.4,0.6-1.4,1.4v1.8h-9.2V1.4c0-0.8-0.6-1.4-1.4-1.4
		s-1.4,0.6-1.4,1.4v1.8h-9.2V1.4c0-0.8-0.6-1.4-1.4-1.4c-0.8,0-1.4,0.6-1.4,1.4v1.8H100c-2.5,0-4.6,2.1-4.6,4.6v23
		c0,2.5,2.1,4.6,4.6,4.6h31.3c2.5,0,4.6-2.1,4.6-4.6v-23C135.9,5.3,133.8,3.2,131.3,3.2z"/>
	<rect x="101.8" y="11.5" fill="#FFFFFF" width="7.4" height="7.4"/>
	<rect x="112" y="11.5" fill="#FFFFFF" width="7.4" height="7.4"/>
	<rect x="122.1" y="11.5" fill="#FFFFFF" width="7.4" height="7.4"/>
	<rect x="101.8" y="21.6" fill="#FFFFFF" width="7.4" height="7.4"/>
	<rect x="112" y="21.6" fill="#FFFFFF" width="7.4" height="7.4"/>
	<rect x="122.1" y="21.6" fill="#FFFFFF" width="7.4" height="7.4"/>
</g>
<g opacity="0.3">
	<path fill="#4BB261" d="M179,3.2h-1.8V1.4c0-0.8-0.6-1.4-1.4-1.4c-0.8,0-1.4,0.6-1.4,1.4v1.8h-9.2V1.4c0-0.8-0.6-1.4-1.4-1.4
		c-0.8,0-1.4,0.6-1.4,1.4v1.8h-9.2V1.4c0-0.8-0.6-1.4-1.4-1.4s-1.4,0.6-1.4,1.4v1.8h-2.8c-2.5,0-4.6,2.1-4.6,4.6v23
		c0,2.5,2.1,4.6,4.6,4.6H179c2.5,0,4.6-2.1,4.6-4.6v-23C183.6,5.3,181.5,3.2,179,3.2z M181.8,30.8c0,1.5-1.2,2.8-2.8,2.8h-31.3
		c-1.5,0-2.8-1.2-2.8-2.8v-23c0-1.5,1.2-2.8,2.8-2.8h2.8v1.8c0,0.8,0.6,1.4,1.4,1.4s1.4-0.6,1.4-1.4V5.1h9.2v1.8
		c0,0.8,0.6,1.4,1.4,1.4c0.8,0,1.4-0.6,1.4-1.4V5.1h9.2v1.8c0,0.8,0.6,1.4,1.4,1.4c0.8,0,1.4-0.6,1.4-1.4V5.1h1.8
		c1.5,0,2.8,1.2,2.8,2.8V30.8z"/>
	<rect x="149.5" y="11.5" fill="#4BB261" width="7.4" height="7.4"/>
	<rect x="159.7" y="11.5" fill="#4BB261" width="7.4" height="7.4"/>
	<rect x="169.8" y="11.5" fill="#4BB261" width="7.4" height="7.4"/>
	<rect x="149.5" y="21.6" fill="#4BB261" width="7.4" height="7.4"/>
	<rect x="159.7" y="21.6" fill="#4BB261" width="7.4" height="7.4"/>
	<rect x="169.8" y="21.6" fill="#4BB261" width="7.4" height="7.4"/>
</g>
<g opacity="0.3">
	<path fill="#4BB261" d="M226.7,3.2h-1.8V1.4c0-0.8-0.6-1.4-1.4-1.4c-0.8,0-1.4,0.6-1.4,1.4v1.8h-9.2V1.4c0-0.8-0.6-1.4-1.4-1.4
		c-0.8,0-1.4,0.6-1.4,1.4v1.8h-9.2V1.4c0-0.8-0.6-1.4-1.4-1.4c-0.8,0-1.4,0.6-1.4,1.4v1.8h-2.8c-2.5,0-4.6,2.1-4.6,4.6v23
		c0,2.5,2.1,4.6,4.6,4.6h31.3c2.5,0,4.6-2.1,4.6-4.6v-23C231.3,5.3,229.2,3.2,226.7,3.2z M229.5,30.8c0,1.5-1.2,2.8-2.8,2.8h-31.3
		c-1.5,0-2.8-1.2-2.8-2.8v-23c0-1.5,1.2-2.8,2.8-2.8h2.8v1.8c0,0.8,0.6,1.4,1.4,1.4c0.8,0,1.4-0.6,1.4-1.4V5.1h9.2v1.8
		c0,0.8,0.6,1.4,1.4,1.4c0.8,0,1.4-0.6,1.4-1.4V5.1h9.2v1.8c0,0.8,0.6,1.4,1.4,1.4c0.8,0,1.4-0.6,1.4-1.4V5.1h1.8
		c1.5,0,2.8,1.2,2.8,2.8V30.8z"/>
	<rect x="197.2" y="11.5" fill="#4BB261" width="7.4" height="7.4"/>
	<rect x="207.4" y="11.5" fill="#4BB261" width="7.4" height="7.4"/>
	<rect x="217.5" y="11.5" fill="#4BB261" width="7.4" height="7.4"/>
	<rect x="197.2" y="21.6" fill="#4BB261" width="7.4" height="7.4"/>
	<rect x="207.4" y="21.6" fill="#4BB261" width="7.4" height="7.4"/>
	<rect x="217.5" y="21.6" fill="#4BB261" width="7.4" height="7.4"/>
</g>
<g opacity="0.3">
	<path fill="#4BB261" d="M274.4,3.2h-1.8V1.4c0-0.8-0.6-1.4-1.4-1.4c-0.8,0-1.4,0.6-1.4,1.4v1.8h-9.2V1.4c0-0.8-0.6-1.4-1.4-1.4
		c-0.8,0-1.4,0.6-1.4,1.4v1.8h-9.2V1.4c0-0.8-0.6-1.4-1.4-1.4c-0.8,0-1.4,0.6-1.4,1.4v1.8h-2.8c-2.5,0-4.6,2.1-4.6,4.6v23
		c0,2.5,2.1,4.6,4.6,4.6h31.3c2.5,0,4.6-2.1,4.6-4.6v-23C279,5.3,276.9,3.2,274.4,3.2z M277.2,30.8c0,1.5-1.2,2.8-2.8,2.8h-31.3
		c-1.5,0-2.8-1.2-2.8-2.8v-23c0-1.5,1.2-2.8,2.8-2.8h2.8v1.8c0,0.8,0.6,1.4,1.4,1.4c0.8,0,1.4-0.6,1.4-1.4V5.1h9.2v1.8
		c0,0.8,0.6,1.4,1.4,1.4c0.8,0,1.4-0.6,1.4-1.4V5.1h9.2v1.8c0,0.8,0.6,1.4,1.4,1.4c0.8,0,1.4-0.6,1.4-1.4V5.1h1.8
		c1.5,0,2.8,1.2,2.8,2.8V30.8z"/>
	<rect x="244.9" y="11.5" fill="#4BB261" width="7.4" height="7.4"/>
	<rect x="255.1" y="11.5" fill="#4BB261" width="7.4" height="7.4"/>
	<rect x="265.2" y="11.5" fill="#4BB261" width="7.4" height="7.4"/>
	<rect x="244.9" y="21.6" fill="#4BB261" width="7.4" height="7.4"/>
	<rect x="255.1" y="21.6" fill="#4BB261" width="7.4" height="7.4"/>
	<rect x="265.2" y="21.6" fill="#4BB261" width="7.4" height="7.4"/>
</g>
<g>
	<path fill="#1E956B" d="M35.9,47.2h-1.8v-1.8c0-0.8-0.6-1.4-1.4-1.4s-1.4,0.6-1.4,1.4v1.8h-9.2v-1.8c0-0.8-0.6-1.4-1.4-1.4
		c-0.8,0-1.4,0.6-1.4,1.4v1.8h-9.2v-1.8c0-0.8-0.6-1.4-1.4-1.4s-1.4,0.6-1.4,1.4v1.8H4.6c-2.5,0-4.6,2.1-4.6,4.6v23
		c0,2.5,2.1,4.6,4.6,4.6h31.3c2.5,0,4.6-2.1,4.6-4.6v-23C40.5,49.2,38.4,47.2,35.9,47.2z"/>
	<rect x="6.4" y="55.4" fill="#FFFFFF" width="7.4" height="7.4"/>
	<rect x="16.6" y="55.4" fill="#FFFFFF" width="7.4" height="7.4"/>
	<rect x="26.7" y="55.4" fill="#FFFFFF" width="7.4" height="7.4"/>
	<rect x="6.4" y="65.6" fill="#FFFFFF" width="7.4" height="7.4"/>
	<rect x="16.6" y="65.6" fill="#FFFFFF" width="7.4" height="7.4"/>
	<rect x="26.7" y="65.6" fill="#FFFFFF" width="7.4" height="7.4"/>
</g>
<g>
	<path fill="#1E956B" d="M83.6,47.2h-1.8v-1.8c0-0.8-0.6-1.4-1.4-1.4S79,44.6,79,45.3v1.8h-9.2v-1.8c0-0.8-0.6-1.4-1.4-1.4
		c-0.8,0-1.4,0.6-1.4,1.4v1.8h-9.2v-1.8c0-0.8-0.6-1.4-1.4-1.4s-1.4,0.6-1.4,1.4v1.8h-2.8c-2.5,0-4.6,2.1-4.6,4.6v23
		c0,2.5,2.1,4.6,4.6,4.6h31.3c2.5,0,4.6-2.1,4.6-4.6v-23C88.2,49.2,86.1,47.2,83.6,47.2z"/>
	<rect x="54.1" y="55.4" fill="#FFFFFF" width="7.4" height="7.4"/>
	<rect x="64.3" y="55.4" fill="#FFFFFF" width="7.4" height="7.4"/>
	<rect x="74.4" y="55.4" fill="#FFFFFF" width="7.4" height="7.4"/>
	<rect x="54.1" y="65.6" fill="#FFFFFF" width="7.4" height="7.4"/>
	<rect x="64.3" y="65.6" fill="#FFFFFF" width="7.4" height="7.4"/>
	<rect x="74.4" y="65.6" fill="#FFFFFF" width="7.4" height="7.4"/>
</g>
<g>
	<path fill="#1E956B" d="M131.3,47.2h-1.8v-1.8c0-0.8-0.6-1.4-1.4-1.4c-0.8,0-1.4,0.6-1.4,1.4v1.8h-9.2v-1.8c0-0.8-0.6-1.4-1.4-1.4
		s-1.4,0.6-1.4,1.4v1.8h-9.2v-1.8c0-0.8-0.6-1.4-1.4-1.4c-0.8,0-1.4,0.6-1.4,1.4v1.8H100c-2.5,0-4.6,2.1-4.6,4.6v23
		c0,2.5,2.1,4.6,4.6,4.6h31.3c2.5,0,4.6-2.1,4.6-4.6v-23C135.9,49.2,133.8,47.2,131.3,47.2z"/>
	<rect x="101.8" y="55.4" fill="#FFFFFF" width="7.4" height="7.4"/>
	<rect x="112" y="55.4" fill="#FFFFFF" width="7.4" height="7.4"/>
	<rect x="122.1" y="55.4" fill="#FFFFFF" width="7.4" height="7.4"/>
	<rect x="101.8" y="65.6" fill="#FFFFFF" width="7.4" height="7.4"/>
	<rect x="112" y="65.6" fill="#FFFFFF" width="7.4" height="7.4"/>
	<rect x="122.1" y="65.6" fill="#FFFFFF" width="7.4" height="7.4"/>
</g>
<g opacity="0.3">
	<path fill="#4BB261" d="M179,47.2h-1.8v-1.8c0-0.8-0.6-1.4-1.4-1.4c-0.8,0-1.4,0.6-1.4,1.4v1.8h-9.2v-1.8c0-0.8-0.6-1.4-1.4-1.4
		c-0.8,0-1.4,0.6-1.4,1.4v1.8h-9.2v-1.8c0-0.8-0.6-1.4-1.4-1.4s-1.4,0.6-1.4,1.4v1.8h-2.8c-2.5,0-4.6,2.1-4.6,4.6v23
		c0,2.5,2.1,4.6,4.6,4.6H179c2.5,0,4.6-2.1,4.6-4.6v-23C183.6,49.2,181.5,47.2,179,47.2z M181.8,74.8c0,1.5-1.2,2.8-2.8,2.8h-31.3
		c-1.5,0-2.8-1.2-2.8-2.8v-23c0-1.5,1.2-2.8,2.8-2.8h2.8v1.8c0,0.8,0.6,1.4,1.4,1.4s1.4-0.6,1.4-1.4V49h9.2v1.8
		c0,0.8,0.6,1.4,1.4,1.4c0.8,0,1.4-0.6,1.4-1.4V49h9.2v1.8c0,0.8,0.6,1.4,1.4,1.4c0.8,0,1.4-0.6,1.4-1.4V49h1.8
		c1.5,0,2.8,1.2,2.8,2.8V74.8z"/>
	<rect x="149.5" y="55.4" fill="#4BB261" width="7.4" height="7.4"/>
	<rect x="159.7" y="55.4" fill="#4BB261" width="7.4" height="7.4"/>
	<rect x="169.8" y="55.4" fill="#4BB261" width="7.4" height="7.4"/>
	<rect x="149.5" y="65.6" fill="#4BB261" width="7.4" height="7.4"/>
	<rect x="159.7" y="65.6" fill="#4BB261" width="7.4" height="7.4"/>
	<rect x="169.8" y="65.6" fill="#4BB261" width="7.4" height="7.4"/>
</g>
<g opacity="0.3">
	<path fill="#4BB261" d="M226.7,47.2h-1.8v-1.8c0-0.8-0.6-1.4-1.4-1.4c-0.8,0-1.4,0.6-1.4,1.4v1.8h-9.2v-1.8c0-0.8-0.6-1.4-1.4-1.4
		c-0.8,0-1.4,0.6-1.4,1.4v1.8h-9.2v-1.8c0-0.8-0.6-1.4-1.4-1.4c-0.8,0-1.4,0.6-1.4,1.4v1.8h-2.8c-2.5,0-4.6,2.1-4.6,4.6v23
		c0,2.5,2.1,4.6,4.6,4.6h31.3c2.5,0,4.6-2.1,4.6-4.6v-23C231.3,49.2,229.2,47.2,226.7,47.2z M229.5,74.8c0,1.5-1.2,2.8-2.8,2.8
		h-31.3c-1.5,0-2.8-1.2-2.8-2.8v-23c0-1.5,1.2-2.8,2.8-2.8h2.8v1.8c0,0.8,0.6,1.4,1.4,1.4c0.8,0,1.4-0.6,1.4-1.4V49h9.2v1.8
		c0,0.8,0.6,1.4,1.4,1.4c0.8,0,1.4-0.6,1.4-1.4V49h9.2v1.8c0,0.8,0.6,1.4,1.4,1.4c0.8,0,1.4-0.6,1.4-1.4V49h1.8
		c1.5,0,2.8,1.2,2.8,2.8V74.8z"/>
	<rect x="197.2" y="55.4" fill="#4BB261" width="7.4" height="7.4"/>
	<rect x="207.4" y="55.4" fill="#4BB261" width="7.4" height="7.4"/>
	<rect x="217.5" y="55.4" fill="#4BB261" width="7.4" height="7.4"/>
	<rect x="197.2" y="65.6" fill="#4BB261" width="7.4" height="7.4"/>
	<rect x="207.4" y="65.6" fill="#4BB261" width="7.4" height="7.4"/>
	<rect x="217.5" y="65.6" fill="#4BB261" width="7.4" height="7.4"/>
</g>
<g opacity="0.3">
	<path fill="#4BB261" d="M274.4,47.2h-1.8v-1.8c0-0.8-0.6-1.4-1.4-1.4c-0.8,0-1.4,0.6-1.4,1.4v1.8h-9.2v-1.8c0-0.8-0.6-1.4-1.4-1.4
		c-0.8,0-1.4,0.6-1.4,1.4v1.8h-9.2v-1.8c0-0.8-0.6-1.4-1.4-1.4c-0.8,0-1.4,0.6-1.4,1.4v1.8h-2.8c-2.5,0-4.6,2.1-4.6,4.6v23
		c0,2.5,2.1,4.6,4.6,4.6h31.3c2.5,0,4.6-2.1,4.6-4.6v-23C279,49.2,276.9,47.2,274.4,47.2z M277.2,74.8c0,1.5-1.2,2.8-2.8,2.8h-31.3
		c-1.5,0-2.8-1.2-2.8-2.8v-23c0-1.5,1.2-2.8,2.8-2.8h2.8v1.8c0,0.8,0.6,1.4,1.4,1.4c0.8,0,1.4-0.6,1.4-1.4V49h9.2v1.8
		c0,0.8,0.6,1.4,1.4,1.4c0.8,0,1.4-0.6,1.4-1.4V49h9.2v1.8c0,0.8,0.6,1.4,1.4,1.4c0.8,0,1.4-0.6,1.4-1.4V49h1.8
		c1.5,0,2.8,1.2,2.8,2.8V74.8z"/>
	<rect x="244.9" y="55.4" fill="#4BB261" width="7.4" height="7.4"/>
	<rect x="255.1" y="55.4" fill="#4BB261" width="7.4" height="7.4"/>
	<rect x="265.2" y="55.4" fill="#4BB261" width="7.4" height="7.4"/>
	<rect x="244.9" y="65.6" fill="#4BB261" width="7.4" height="7.4"/>
	<rect x="255.1" y="65.6" fill="#4BB261" width="7.4" height="7.4"/>
	<rect x="265.2" y="65.6" fill="#4BB261" width="7.4" height="7.4"/>
</g>
</svg>
