<?xml version="1.0" encoding="utf-8"?>
<!-- Generator: Adobe Illustrator 15.1.0, SVG Export Plug-In . SVG Version: 6.00 Build 0)  -->
<!DOCTYPE svg PUBLIC "-//W3C//DTD SVG 1.1//EN" "http://www.w3.org/Graphics/SVG/1.1/DTD/svg11.dtd">
<svg version="1.1" id="Layer_1" xmlns="http://www.w3.org/2000/svg" xmlns:xlink="http://www.w3.org/1999/xlink" x="0px" y="0px"
	 width="55px" height="55px" viewBox="0 0 55 55" enable-background="new 0 0 55 55" xml:space="preserve">
<g>
	<g>
		<circle fill="#F9B33A" cx="27.5" cy="27.5" r="27.5"/>
	</g>
	<g>
		<g>
			<g>
				<path fill="#FFFFFF" d="M38.1,14.3l-5-2.9c-0.4-0.2-0.9-0.1-1.1,0.3l-1.7,3c-0.2,0.4-0.1,0.9,0.3,1.1l5,2.9
					c0.4,0.2,0.9,0.1,1.1-0.3l1.7-3C38.6,15,38.4,14.5,38.1,14.3z"/>
			</g>
			<g>
				<path fill="#FFFFFF" d="M30.3,16.2l-7.8,13.6l0,0l-5,8.8c0,0-1.2,2.4,1.1,3.8c2.3,1.3,3.8-0.9,3.8-0.9l5-8.8l0,0l7.8-13.6
					L30.3,16.2z M22.2,40.7c0,0-1.1,1.7-2.8,0.7c-1.7-1-0.8-2.8-0.8-2.8l10.3-18l3.7,2.1L22.2,40.7z"/>
			</g>
			<g>
				<path fill="#FFFFFF" d="M24.6,33.7c-0.1,0.2-0.4,0.2-0.6,0.1l-2.6-1.5l5.8-10.1l2.6,1.5c0.2,0.1,0.3,0.5,0.2,0.7L24.6,33.7z"/>
			</g>
		</g>
		<g>
			<g>
				<path fill="#FFFFFF" d="M27.5,50C15,50,4.9,39.9,4.9,27.4C4.9,14.9,15,4.7,27.5,4.7s22.7,10.2,22.7,22.7
					C50.2,39.9,40,50,27.5,50z M27.5,7.5c-10.9,0-19.8,8.9-19.8,19.8c0,10.9,8.9,19.8,19.8,19.8c10.9,0,19.8-8.9,19.8-19.8
					C47.4,16.4,38.5,7.5,27.5,7.5z"/>
			</g>
			<g>
				
					<rect x="6.5" y="25.7" transform="matrix(0.7071 0.7072 -0.7072 0.7071 27.323 -11.6841)" fill="#FFFFFF" width="42.5" height="2.8"/>
			</g>
		</g>
	</g>
</g>
</svg>
