<?xml version="1.0" encoding="utf-8"?>
<!-- Generator: Adobe Illustrator 15.1.0, SVG Export Plug-In . SVG Version: 6.00 Build 0)  -->
<!DOCTYPE svg PUBLIC "-//W3C//DTD SVG 1.1//EN" "http://www.w3.org/Graphics/SVG/1.1/DTD/svg11.dtd">
<svg version="1.1" id="Layer_1" xmlns="http://www.w3.org/2000/svg" xmlns:xlink="http://www.w3.org/1999/xlink" x="0px" y="0px"
	 width="55px" height="55px" viewBox="0 0 55 55" enable-background="new 0 0 55 55" xml:space="preserve">
<g>
	<g>
		<circle fill="#F28246" cx="27.5" cy="27.5" r="27.5"/>
	</g>
</g>
<g>
	<path fill="#FFFFFF" d="M27.4,50.4c-0.2-1.1-0.4-1.9-0.5-3c0-0.9,2.1-1.7,2.9-1.2c0.4,0.3,0.8,0.7,1.1,1.3c-0.8-0.2-1.6-0.8-2.5-1
		c-0.2,1.4-0.4,2.8-0.7,3.9C27.6,50.4,27.5,50.4,27.4,50.4z"/>
	<path fill="#FFFFFF" d="M44.8,13.4c-0.5,0.4-0.9,1.2-1.5,1.3c-1,0.1-1.6,0.9-2.3,1.2c-1.3,0.5-2.2,1.3-3.3,1.9
		c-0.6,0.4-1.7,0.1-3,0.1c-1,1.5-3,1.3-5,1c-0.8-0.1-1.1-0.4-1.1-1.3c0.1-1.1,0-2.1,0.1-3.2c0.1-1.3,2.2-3.2,3.3-2.8
		c4.1,1.5,8.3,1.3,12.5,1.4C44.6,13.1,44.7,13.2,44.8,13.4z"/>
	<path fill="#FFFFFF" d="M10.2,12.9c2,0,3.8,0.1,5.5,0c2.1-0.2,4.2-0.7,6.4-1.1c1.1-0.2,1.9-0.3,2.9,0.7c2.1,1.9,0.8,4,1.3,6
		c-2.6,1.1-4.4,0.8-6.3-1c-1.5,0.8-3,1-3.9-0.9c-0.1-0.2-0.7-0.1-1-0.3c-1.4-0.7-2.8-1.4-4.2-2.2C10.6,13.9,10.5,13.5,10.2,12.9z"/>
	<path fill="#FFFFFF" d="M25.9,31.1c-0.1,0.1-0.5,0.2-0.8,0.4c-1.7,0.9-3.3-0.2-3.2-2.2c0.1-2,1.7-3.7,4-4.2
		c1.4-0.3,2.9-0.3,4.3-0.5c0.9-0.2,1.9-0.4,2.7-0.8c0.5-0.2,0.7-0.8,1.1-1.2c-0.1-0.1-0.2-0.3-0.3-0.4c-0.4,0.1-0.8,0.1-1.2,0.3
		c-0.2,0.1-0.3,0.3-0.5,0.3c-0.8,0.1-1.5,0.2-2.3,0.1c-0.2,0-0.5-0.9-0.3-1.1c0.5-0.6,1.1-1.1,1.7-1.7c0.1-0.1,0.2,0,0.3,0
		c2.4-0.2,4.3,0.6,4.7,2.1c0.4,1.5-0.7,3.2-2.9,4.2c-1.1,0.5-2.4,0.8-3.6,1c-0.7,0.2-1.5,0.1-2.2,0.3c-0.8,0.2-1.8,0.5-2.1,1.1
		C24.9,29.2,25.5,30.1,25.9,31.1z"/>
	<path fill="#FFFFFF" d="M29.8,28c1-0.2,1.9-0.5,2.7-0.7c1.2,1.8,1,3.4-0.8,4.5c-1.4,0.9-3.1,1.4-4.7,2c-1.6,0.7-1.8,1.3-0.7,2.8
		c-0.7,0.4-1.4,0.8-2,1.1c-2.2-1.5-2.3-3.4-0.1-4.9c1.1-0.7,2.4-1.2,3.7-1.7C29.8,30.4,30.2,29.6,29.8,28z"/>
	<path fill="#FFFFFF" d="M28.2,24.1c-0.4,0-0.8,0.1-1.3,0.1c-0.1-0.3-0.1-0.5-0.1-0.8c0-3.4,0-6.8-0.1-10.1c0-0.7-0.4-1.4-0.8-1.9
		c-0.8-1-0.8-2.2,0.1-3c0.9-0.8,1.9-0.8,2.9,0c0.9,0.8,0.9,1.9,0.1,3c-0.4,0.5-0.7,1.2-0.7,1.8c-0.1,3.5-0.1,7-0.1,10.4
		C28.3,23.7,28.2,23.8,28.2,24.1z"/>
	<path fill="#FFFFFF" d="M28.5,34.4c0.7-0.5,1.5-1,2.2-1.4c2.1,1.9,1.8,4.2-0.6,5.3c-0.8,0.4-1.8,0.5-2.5,1c-0.6,0.3-0.9,1-1.3,1.5
		c-0.4,0.5-0.9,0.9-1.4,1.4c-1.5-1.4-1.2-3.3,0.6-4.3c1-0.5,2.1-0.8,3.1-1.3C29.9,35.9,29.8,35.2,28.5,34.4L28.5,34.4z"/>
	<path fill="#FFFFFF" d="M24.9,24.6c-0.6,0.4-1.1,0.5-1.5,0.8c-0.7,0.6-1.3,1.2-2.3,0.4c-1.2-0.9-2.3-1.8-2.1-3.5
		c0.1-1.2,0.9-1.9,2.1-2.1c1.1-0.2,2.2-0.3,3.3-0.1c0.6,0.1,1.1,1,1.5,1.6c0.1,0.2-0.2,0.9-0.3,1c-0.7,0.1-1.5,0.2-2.2,0
		c-0.7-0.1-1.5-1.4-2-0.3c-0.5,1,0.8,1.3,1.6,1.6C23.5,24.2,24.1,24.3,24.9,24.6z"/>
	<path fill="#FFFFFF" d="M28.1,40.3v-0.8c0,0-0.7,0.4-1,0.8c0.1,0.2-0.1,0.5,0,0.6C27.4,40.6,28.1,40.3,28.1,40.3z"/>
	<path fill="#FFFFFF" d="M30.4,38.7c-0.6,0.3-1.1,0.4-1.7,0.6c0,0,0,0.9,0,0.9s-0.7,0.7-1.1,0.9c-0.6,0.3-1.3,0.5-1.7,0.9
		c-0.5,0.5-1.2,1.2-1.2,1.7c0,0.7,0.7,1.3,1.2,2.2c0.5-1,2.5-2.7,3.3-3.1C30.8,42.1,31.2,40.7,30.4,38.7z"/>
	<path fill="#FFFFFF" d="M24,47.4c1.2-0.8,2.4-1.6,3.7-2.5c-0.3-0.2,1.8-1.8,2.8-2.1c0.6,1.2-0.1,2-1,2.5c-1.7,0.9-3.5,1.6-5.2,2.4
		C24.1,47.7,24.1,47.6,24,47.4z"/>
	<path fill="#FFFFFF" d="M28.3,28.2c-0.3,1,0.6,2.3-1.2,2.5C26.5,28.5,26.7,28.2,28.3,28.2z"/>
	<path fill="#FFFFFF" d="M27.9,34.3c-0.1,0.3,0.2,1,0.1,1.3c-0.2,0.4-0.3,0.5-0.7,1.2C26.6,34.5,27.9,34.3,27.9,34.3z"/>
</g>
</svg>
