<?xml version="1.0" encoding="utf-8"?>
<!-- Generator: Adobe Illustrator 15.1.0, SVG Export Plug-In . SVG Version: 6.00 Build 0)  -->
<!DOCTYPE svg PUBLIC "-//W3C//DTD SVG 1.1//EN" "http://www.w3.org/Graphics/SVG/1.1/DTD/svg11.dtd">
<svg version="1.1" id="Layer_1" xmlns="http://www.w3.org/2000/svg" xmlns:xlink="http://www.w3.org/1999/xlink" x="0px" y="0px"
	 width="46px" height="46.5px" viewBox="0 0 46 46.5" enable-background="new 0 0 46 46.5" xml:space="preserve">
<g>
	<polygon fill="#EF9F35" points="0,35.5 46,35.5 46,22.2 23,4.9 0,22.2 	"/>
	<rect x="5" fill="#FFFFFF" width="37.2" height="42.7"/>
	<rect x="9" y="7.5" opacity="0.46" fill="#004F83" width="30" height="3"/>
	<rect x="9" y="13.5" opacity="0.46" fill="#004F83" width="30" height="3"/>
	<rect x="9" y="19.5" opacity="0.46" fill="#004F83" width="30" height="3"/>
	<path fill="#FBB03B" d="M23,34.3l23-11.1v0.1v5.4v14.9c0,1.1-0.1,1.6-0.9,2.4c-0.8,0.8-1.5,0.7-2.6,0.7H4.8c-1.1,0-2.5,0.1-3.3-0.7
		C0.8,45.1,0,44.6,0,43.5v-5V23.2v-0.3L23,34.3z"/>
</g>
</svg>
