<?xml version="1.0" encoding="utf-8"?>
<!-- Generator: Adobe Illustrator 15.1.0, SVG Export Plug-In . SVG Version: 6.00 Build 0)  -->
<!DOCTYPE svg PUBLIC "-//W3C//DTD SVG 1.1//EN" "http://www.w3.org/Graphics/SVG/1.1/DTD/svg11.dtd">
<svg version="1.1" id="Layer_1" xmlns="http://www.w3.org/2000/svg" xmlns:xlink="http://www.w3.org/1999/xlink" x="0px" y="0px"
	 width="94px" height="74px" viewBox="0 0 94 74" enable-background="new 0 0 94 74" xml:space="preserve">
<g>
	<path fill="#AA6C1A" d="M45.9,51.8c-0.1,0-0.2,0-0.4,0c-0.1,0-0.1,0-0.2,0c0,0,0,0,0,0c-0.1,0-0.2,0-0.3-0.1l-3.3-1.4
		c-3.2,0.8-7.3,1.2-11.3,1.2c-6.9,0-13.9-1.2-16.5-3.3c0,1.5,0,3.8,0,4.6c0,2.4,7.4,4.3,16.5,4.3S47,55.3,47,52.9c0-0.3,0-0.9,0-1.5
		c-0.2,0.1-0.4,0.1-0.5,0.2C46.3,51.7,46.1,51.8,45.9,51.8z"/>
	<path fill="#AA6C1A" d="M30.5,50.8c4,0,7.6-0.3,10.3-0.9l-13.3-5.5c-0.5-0.2-0.9-0.7-1-1.2c-6.9,0.5-12,2-12.4,4
		C14.9,49,21.6,50.8,30.5,50.8z"/>
	<path fill="#AA6C1A" d="M38,21.2l16.3,6.7l2.3,0.9c0.5-0.1,1-0.5,1.2-1c0.2-0.6,0.2-1.2-0.2-1.7L57,25.8l-2.9-1.2L40.4,19L37,17.6
		l-0.7-0.3c-0.5,0.1-1,0.5-1.2,1.1c-0.2,0.6-0.2,1.2,0.2,1.7L38,21.2z"/>
	<path fill="#AA6C1A" d="M27.9,38L27.9,38c-0.6,0.1-1,0.5-1.3,1.1c-0.3,0.6-0.1,1.3,0.3,1.8l0,0l0.4,0.2l5,2l13,5.3l0.6,0.3l0.9,0.4
		l0.5,0.2l0.5,0.2c0-0.2,0-0.2,0,0l0.1,0l0,0c0.6-0.1,1.1-0.5,1.3-1.1c0.2-0.6,0.1-1.3-0.2-1.8L27.9,38z"/>
	<path fill="#AA6C1A" d="M42,19.2l10.9,4.4l0.8,0.3l3.6,1.4c0.4-1.1,0-2.2-0.9-2.5L39.6,16c-0.9-0.4-2,0.2-2.4,1.2l3.9,1.6L42,19.2z
		"/>
	<path fill="#AA6C1A" d="M83.3,46.4L52.9,33.9c0.6-1.9,1.1-3.6,1.3-5.1L37.4,22c-1.2,1.7-2.5,4.1-3.6,6.7c-1.6,3.9-2.4,7.5-2.3,9.9
		l15.3,6.2c1.3-1.3,2.8-3.5,4.1-6.2l30.4,12.5c1.3,0.5,2.8-0.1,3.3-1.4C85.2,48.4,84.6,47,83.3,46.4z"/>
</g>
<path fill="#AA6C1A" d="M42.4,47.7l-10.9-4.4L30.7,43l-3.6-1.4c-0.4,1.1,0,2.2,0.9,2.5l16.7,6.9c0.9,0.4,2-0.2,2.4-1.2l-3.9-1.6
	L42.4,47.7z"/>
</svg>
