<?xml version="1.0" encoding="utf-8"?>
<!-- Generator: Adobe Illustrator 15.1.0, SVG Export Plug-In . SVG Version: 6.00 Build 0)  -->
<!DOCTYPE svg PUBLIC "-//W3C//DTD SVG 1.1//EN" "http://www.w3.org/Graphics/SVG/1.1/DTD/svg11.dtd">
<svg version="1.1" id="Layer_1" xmlns="http://www.w3.org/2000/svg" xmlns:xlink="http://www.w3.org/1999/xlink" x="0px" y="0px"
	 width="94px" height="74px" viewBox="0 0 94 74" enable-background="new 0 0 94 74" xml:space="preserve">
<g>
	<g>
		<polygon fill="#5F2A63" points="61,52.6 62.9,55.6 64.8,52.4 63,50.9 		"/>
		<polygon fill="#5F2A63" points="65.1,52 65.9,50.8 65.9,21.3 63.5,21.3 63.5,50.7 		"/>
		<polygon fill="#5F2A63" points="62.5,21.3 59.9,21.3 59.9,50.8 60.7,52.2 62.5,50.7 		"/>
		<path fill="#5F2A63" d="M66,19.4c0-0.6-0.5-1.2-1-1.2H61c-0.6,0-1.1,0.6-1.1,1.2v1h6L66,19.4z"/>
	</g>
	<g>
		<path fill="#5F2A63" d="M28,14.6v44.9h28V14.6H28z M38.8,27.1h7.9v1.9h-7.9V27.1z M38.8,37.2h7.9v1.9h-7.9V37.2z M37.4,50.2h-6.9
			v-6.5h6.9V50.2z M37.4,40h-6.9v-6.5h6.9V40z M37.4,29.8h-6.9v-6.5h6.9V29.8z M46.7,49.3h-7.9v-1.9h7.9V49.3z M52.2,45.7H38.8v-1.9
			h13.4V45.7z M52.2,35.5H38.8v-1.9h13.4V35.5z M52.2,25.3H38.8v-1.9h13.4V25.3z"/>
	</g>
</g>
</svg>
