<?xml version="1.0" encoding="utf-8"?>
<!-- Generator: Adobe Illustrator 15.1.0, SVG Export Plug-In . SVG Version: 6.00 Build 0)  -->
<!DOCTYPE svg PUBLIC "-//W3C//DTD SVG 1.1//EN" "http://www.w3.org/Graphics/SVG/1.1/DTD/svg11.dtd">
<svg version="1.1" id="Layer_1" xmlns="http://www.w3.org/2000/svg" xmlns:xlink="http://www.w3.org/1999/xlink" x="0px" y="0px"
	 width="94px" height="74px" viewBox="0 0 94 74" enable-background="new 0 0 94 74" xml:space="preserve">
<g>
	<g>
		<path fill="#007C70" d="M65.6,58h-4c-0.2,0-0.4-0.3-0.4-0.5s0.2-0.5,0.4-0.5H65V16H32v3.2c0,0.2-0.3,0.4-0.5,0.4S31,19.5,31,19.2
			v-4.4c0-0.2,1,0.2,1.3,0.2h33.3c0.2,0,0.4-0.5,0.4-0.2V57C66,57.3,65.8,58,65.6,58z"/>
	</g>
	<g>
		<path fill="#007C70" d="M27.7,18.2v41.1H61V18.2H27.7z M39.3,30.3h7.1v1.8h-7.1V30.3z M39.3,39.7h7.1v1.8h-7.1V39.7z M37.9,50.8
			h-6.2V45h6.2V50.8z M37.9,41.5h-6.2v-5.8h6.2V41.5z M37.9,32.1h-6.2v-5.8h6.2V32.1z M46.4,50.8h-7.1V49h7.1V50.8z M56.9,46.8H39.3
			V45h17.7V46.8z M56.9,37.5H39.3v-1.8h17.7V37.5z M56.9,28.1H39.3v-1.8h17.7V28.1z"/>
	</g>
	
		<polyline fill="none" stroke="#FFFFFF" stroke-width="2" stroke-linecap="round" stroke-linejoin="round" stroke-miterlimit="10" points="
		33.5,29.2 34.1,30.8 38.3,23.9 	"/>
</g>
</svg>
