<?xml version="1.0" encoding="utf-8"?>
<!-- Generator: Adobe Illustrator 15.1.0, SVG Export Plug-In . SVG Version: 6.00 Build 0)  -->
<!DOCTYPE svg PUBLIC "-//W3C//DTD SVG 1.1//EN" "http://www.w3.org/Graphics/SVG/1.1/DTD/svg11.dtd">
<svg version="1.1" id="Layer_1" xmlns="http://www.w3.org/2000/svg" xmlns:xlink="http://www.w3.org/1999/xlink" x="0px" y="0px"
	 width="94px" height="74px" viewBox="0 0 94 74" enable-background="new 0 0 94 74" xml:space="preserve">
<g>
	<rect x="30" y="14" fill="#167151" width="36" height="46"/>
	<g>
		<rect x="28" y="20" fill="#167151" width="4" height="2"/>
		<rect x="28" y="26" fill="#167151" width="4" height="2"/>
		<rect x="28" y="33" fill="#167151" width="4" height="2"/>
		<rect x="28" y="39" fill="#167151" width="4" height="2"/>
		<rect x="28" y="46" fill="#167151" width="4" height="2"/>
		<rect x="28" y="53" fill="#167151" width="4" height="1"/>
	</g>
	<rect x="39" y="20" fill="#FFFFFF" width="19" height="23"/>
	<g>
		<g>
			<path fill="#C0272D" d="M52.4,26.2c-0.4-1.4-0.8-2.6-0.8-2.6s0.1,0.6-0.7,1.9c-1.1,1.9-1.1,1.7-7.6,10.8l1.6,2.3
				c0,0,5.4-7.9,7.2-10.5C52.4,27.7,52.7,27.2,52.4,26.2z"/>
			<path fill="#C0272D" d="M50.9,23c-0.8-0.4-2.2-0.6-3.3,0c0,0-0.6,0.4,0.2,1.8c0,0,0.7-0.2,1.5-0.2c0.8,0,1.5,0.2,1.5,0.2
				C51.6,23.3,50.9,23,50.9,23z"/>
			<path fill="#C0272D" d="M51.1,30.6c-0.5,0.7-1,1.5-1.5,2.2c1.9,2.9,3.9,5.9,3.9,5.9l1.7-2.3C53.4,33.8,52.1,31.9,51.1,30.6z"/>
			<path fill="#C0272D" d="M47.4,29.5c0.7-1,1.2-1.6,1.5-2.1c-0.5-0.7-0.8-1.2-1.2-1.9c-0.8-1.4-0.7-1.9-0.7-1.9s-0.5,1.2-0.9,2.6
				c-0.3,1.1,0,1.5,0.2,1.9C46.7,28.4,47,29,47.4,29.5z"/>
		</g>
	</g>
</g>
</svg>
