<?xml version="1.0" encoding="utf-8"?>
<!-- Generator: Adobe Illustrator 15.1.0, SVG Export Plug-In . SVG Version: 6.00 Build 0)  -->
<!DOCTYPE svg PUBLIC "-//W3C//DTD SVG 1.1//EN" "http://www.w3.org/Graphics/SVG/1.1/DTD/svg11.dtd">
<svg version="1.1" id="Layer_1" xmlns="http://www.w3.org/2000/svg" xmlns:xlink="http://www.w3.org/1999/xlink" x="0px" y="0px"
	 width="94px" height="74px" viewBox="0 0 94 74" enable-background="new 0 0 94 74" xml:space="preserve">
<g>
	<g>
		<path fill="#BF5E3C" d="M14.5,16.3v41.4h65V16.3H14.5z M64.7,23.2H16.5v-4.9h48.3V23.2z M68,21.3c-0.5,0-0.9-0.4-0.9-0.9
			c0-0.5,0.4-0.9,0.9-0.9s0.9,0.4,0.9,0.9C68.9,20.9,68.5,21.3,68,21.3z M71.6,21.3c-0.5,0-0.9-0.4-0.9-0.9c0-0.5,0.4-0.9,0.9-0.9
			s0.9,0.4,0.9,0.9C72.5,20.9,72.1,21.3,71.6,21.3z M75.2,21.3c-0.5,0-0.9-0.4-0.9-0.9c0-0.5,0.4-0.9,0.9-0.9c0.5,0,0.9,0.4,0.9,0.9
			C76.1,20.9,75.7,21.3,75.2,21.3z"/>
	</g>
	<rect x="16" y="25" fill="#FFFFFF" width="61" height="30"/>
	<g>
		<g>
			<path fill="#C0272D" d="M32.4,34.5c-0.4-1.5-0.9-2.9-0.9-2.9s0.2,0.7-0.8,2.2c-1.3,2.1-1.2,1.9-8.4,12l1.8,2.6c0,0,6-8.7,8-11.7
				C32.4,36.2,32.8,35.7,32.4,34.5z"/>
			<path fill="#C0272D" d="M30.8,30.9c-0.9-0.5-2.5-0.7-3.7,0c0,0-0.7,0.4,0.2,2c0,0,0.8-0.2,1.6-0.2c0.9,0,1.6,0.3,1.6,0.3
				C31.5,31.3,30.8,30.9,30.8,30.9z"/>
			<path fill="#C0272D" d="M31,39.3c-0.5,0.8-1.1,1.6-1.7,2.5c2.2,3.2,4.3,6.5,4.3,6.5l1.9-2.5C33.5,42.9,32.1,40.8,31,39.3z"/>
			<path fill="#C0272D" d="M26.9,38.2c0.8-1.1,1.3-1.8,1.7-2.4c-0.6-0.8-0.8-1.3-1.3-2.1c-0.9-1.5-0.7-2.2-0.7-2.2s-0.5,1.4-1,2.9
				c-0.4,1.2,0,1.7,0.3,2.1C26.1,37,26.5,37.6,26.9,38.2z"/>
		</g>
	</g>
	<rect x="43" y="46" fill="#BF5E3C" width="13" height="2"/>
	<rect x="43" y="42" fill="#BF5E3C" width="30" height="2"/>
	<rect x="43" y="36" fill="#BF5E3C" width="30" height="2"/>
	<rect x="43" y="30" fill="#BF5E3C" width="30" height="3"/>
</g>
</svg>
